\relax 
\providecommand\hyper@newdestlabel[2]{}
\@writefile{toc}{\contentsline {chapter}{\numberline {}Verzeichnisse}{I}{chapter.5}}
\bibdata{06_lib/lib}
\bibcite{bib:CubeSat}{1}
\bibcite{bib:CubeSat_Norm}{2}
\bibcite{bib:pc104}{3}
\bibcite{bib:Handbuch_Raumfahrttechnik}{4}
\bibcite{bib:Wikipedia_Bahngeschwindigkeit}{5}
\bibcite{bib:Kosmische_Geschwindigkeiten}{6}
\bibcite{bib:Satellitenorbit}{7}
\bibcite{bib:LEO}{8}
\bibcite{bib:Gravitationskonstante}{9}
\bibcite{bib:Erdmasse}{10}
\bibcite{bib:Erdradius}{11}
\bibcite{bib:Solarkonstante}{12}
\bibcite{bib:AE}{13}
\bibcite{bib:MMPT}{14}
\bibcite{bib:slmd481h08l}{15}
\bibcite{bib:LTC3105}{16}
\bibcite{bib:SRR1208}{17}
\@writefile{toc}{\contentsline {chapter}{\nonumberline Literaturverzeichnis}{V}{chapter*.219}}
\@writefile{lof}{\addvspace {10\p@ }}
\@writefile{lot}{\addvspace {10\p@ }}
\@writefile{lol}{\addvspace {10\p@ }}
\bibcite{bib:D1}{18}
\bibcite{bib:ltc4099}{19}
\bibcite{bib:tps6300}{20}
\bibcite{bib:INA226}{21}
\bibcite{bib:tps61020}{22}
\bibcite{bib:attiny85}{23}
\bibcite{bib:max7324}{24}
\bibcite{bib:Stabilisierung}{25}
\bibcite{bib:Drallrad}{26}
\bibcite{bib:Erdmagnetfeld}{27}
\bibcite{bib:Geographische_Breite}{28}
\bibcite{bib:Homogener_Wuerfel}{29}
\bibcite{bib:Spule}{30}
\bibcite{bib:Windungen}{31}
\bibcite{bib:induktivitaet}{32}
\bibcite{bib:LSM9DS0}{33}
\bibcite{bib:TPS62063}{34}
\bibcite{bib:PCA9306}{35}
\bibcite{bib:DRV8830}{36}
\bibcite{bib:I2C}{37}
\bibcite{bib:Pullup_Berechnung}{38}
\bibcite{bib:Fertigung}{39}
\bibcite{bib:USB-I2C-Interface}{40}
\bibcite{bib:HMC5883L}{41}
\bibcite{bib:Einfuehrung_in_LabVIEW}{42}
\@writefile{toc}{\contentsline {chapter}{\numberline {A}Anhang}{IX}{appendix.A}}
\@writefile{lof}{\addvspace {10\p@ }}
\@writefile{lot}{\addvspace {10\p@ }}
\@writefile{lol}{\addvspace {10\p@ }}
\newlabel{kap:Anhang}{{A}{IX}{Anhang}{appendix.A}{}}
\newlabel{kap:Anhang@cref}{{[appendix][1][2147483647]A}{IX}}
\@writefile{toc}{\contentsline {section}{\numberline {A.1}Pflichtenheft}{X}{section.A.1}}
\gdef \LT@iii {\LT@entry 
    {1}{105.89418pt}\LT@entry 
    {1}{77.44142pt}\LT@entry 
    {3}{67.50957pt}\LT@entry 
    {1}{48.78976pt}\LT@entry 
    {1}{69.20004pt}\LT@entry 
    {1}{82.20418pt}}
\@writefile{toc}{\contentsline {section}{\numberline {A.2}Kostenaufstellung des ADCS}{XVI}{section.A.2}}
\@writefile{lot}{\contentsline {table}{\numberline {A.2.1}{\ignorespaces Kostenaufstellung Magnettorquer\relax }}{XVI}{table.A.2.1}}
\newlabel{tab:Kostenaufstellung_Magnettorquer}{{A.2.1}{XVI}{Kostenaufstellung des ADCS}{table.A.2.1}{}}
\newlabel{tab:Kostenaufstellung_Magnettorquer@cref}{{[table][1][2147483647,1,2]A.2.1}{XVI}}
\@writefile{lot}{\contentsline {table}{\numberline {A.2.1}{\ignorespaces Kostenaufstellung Magnettorquer\relax }}{XVII}{table.A.2.1}}
\newlabel{tab:Kostenaufstellung_Magnettorquer}{{A.2.1}{XVII}{Kostenaufstellung des ADCS}{table.A.2.1}{}}
\newlabel{tab:Kostenaufstellung_Magnettorquer@cref}{{[table][1][2147483647,1,2]A.2.1}{XVII}}
\@writefile{toc}{\contentsline {chapter}{\numberline {B}weitere Dokumente}{1}{appendix.B}}
\@writefile{lof}{\addvspace {10\p@ }}
\@writefile{lot}{\addvspace {10\p@ }}
\@writefile{lol}{\addvspace {10\p@ }}
\@writefile{toc}{\contentsline {section}{\numberline {B.1}Projekttageb\IeC {\"u}cher}{1}{section.B.1}}
\@writefile{toc}{\contentsline {subsection}{\numberline {B.1.1}Projekttagebuch von Dilkaran Dhaliwal}{1}{subsection.B.1.1}}
\gdef \LT@iv {\LT@entry 
    {1}{32.24591pt}\LT@entry 
    {2}{61.88321pt}\LT@entry 
    {1}{253.84842pt}\LT@entry 
    {5}{40.02641pt}}
\@writefile{toc}{\contentsline {subsection}{\numberline {B.1.2}Projekttagebuch von Fabian Plaimauer}{4}{subsection.B.1.2}}
\gdef \LT@v {\LT@entry 
    {1}{32.24591pt}\LT@entry 
    {2}{61.88321pt}\LT@entry 
    {1}{253.84842pt}\LT@entry 
    {4}{40.02641pt}}
\@writefile{toc}{\contentsline {subsection}{\numberline {B.1.3}Projekttagebuch von Emre \v {S}abanovi\'{c}}{7}{subsection.B.1.3}}
\gdef \LT@vi {\LT@entry 
    {1}{32.24591pt}\LT@entry 
    {5}{75.87483pt}\LT@entry 
    {1}{253.84842pt}\LT@entry 
    {5}{40.02641pt}}
\@setckpt{02_overhead/06_Appendix}{
\setcounter{page}{10}
\setcounter{equation}{0}
\setcounter{enumi}{6}
\setcounter{enumii}{0}
\setcounter{enumiii}{0}
\setcounter{enumiv}{42}
\setcounter{footnote}{0}
\setcounter{mpfootnote}{0}
\setcounter{part}{0}
\setcounter{chapter}{2}
\setcounter{section}{1}
\setcounter{subsection}{3}
\setcounter{subsubsection}{0}
\setcounter{paragraph}{0}
\setcounter{subparagraph}{0}
\setcounter{figure}{0}
\setcounter{table}{3}
\setcounter{lofdepth}{1}
\setcounter{lotdepth}{1}
\setcounter{nag@c}{51}
\setcounter{parentequation}{0}
\setcounter{Item}{6}
\setcounter{Hfootnote}{0}
\setcounter{bookmark@seq@number}{75}
\setcounter{AM@survey}{0}
\setcounter{ContinuedFloat}{0}
\setcounter{LT@tables}{6}
\setcounter{LT@chunks}{5}
\setcounter{lstnumber}{1}
\setcounter{blindtext}{1}
\setcounter{Blindtext}{5}
\setcounter{blind@countparstart}{0}
\setcounter{blindlist}{0}
\setcounter{blindlistlevel}{0}
\setcounter{blindlist@level}{0}
\setcounter{blind@listcount}{0}
\setcounter{blind@levelcount}{0}
\setcounter{blind@randomcount}{0}
\setcounter{blind@randommax}{0}
\setcounter{blind@pangramcount}{0}
\setcounter{blind@pangrammax}{0}
\setcounter{section@level}{2}
\setcounter{lstlisting}{0}
}
