\relax 
\providecommand\hyper@newdestlabel[2]{}
\@writefile{toc}{\contentsline {chapter}{\numberline {1}Projektbeschreibung}{1}{chapter.1}}
\@writefile{lof}{\addvspace {10\p@ }}
\@writefile{lot}{\addvspace {10\p@ }}
\@writefile{lol}{\addvspace {10\p@ }}
\@writefile{toc}{\contentsline {section}{\numberline {1.1}Problem-Ziel-L\IeC {\"o}sung}{1}{section.1.1}}
\@writefile{toc}{\contentsline {subsection}{\numberline {1.1.1}Problem}{1}{subsection.1.1.1}}
\@writefile{toc}{\contentsline {subsection}{\numberline {1.1.2}Ziel}{1}{subsection.1.1.2}}
\@writefile{toc}{\contentsline {subsection}{\numberline {1.1.3}L\IeC {\"o}sung}{1}{subsection.1.1.3}}
\@writefile{toc}{\contentsline {section}{\numberline {1.2}Arbeitspakete}{2}{section.1.2}}
\providecommand*\caption@xref[2]{\@setref\relax\@undefined{#1}}
\newlabel{tab:Meilensteine}{{\caption@xref {tab:Meilensteine}{ on input line 34}}{2}{Arbeitspakete}{table.caption.6}{}}
\newlabel{tab:Meilensteine@cref}{{[section][2][1]1.2}{2}}
\@setckpt{03_parts/A_PZL}{
\setcounter{page}{3}
\setcounter{equation}{0}
\setcounter{enumi}{0}
\setcounter{enumii}{0}
\setcounter{enumiii}{0}
\setcounter{enumiv}{0}
\setcounter{footnote}{0}
\setcounter{mpfootnote}{0}
\setcounter{part}{0}
\setcounter{chapter}{1}
\setcounter{section}{2}
\setcounter{subsection}{0}
\setcounter{subsubsection}{0}
\setcounter{paragraph}{0}
\setcounter{subparagraph}{0}
\setcounter{figure}{0}
\setcounter{table}{0}
\setcounter{lofdepth}{1}
\setcounter{lotdepth}{1}
\setcounter{nag@c}{51}
\setcounter{parentequation}{0}
\setcounter{Item}{0}
\setcounter{Hfootnote}{0}
\setcounter{bookmark@seq@number}{8}
\setcounter{AM@survey}{0}
\setcounter{ContinuedFloat}{0}
\setcounter{LT@tables}{0}
\setcounter{LT@chunks}{0}
\setcounter{lstnumber}{1}
\setcounter{blindtext}{1}
\setcounter{Blindtext}{5}
\setcounter{blind@countparstart}{0}
\setcounter{blindlist}{0}
\setcounter{blindlistlevel}{0}
\setcounter{blindlist@level}{0}
\setcounter{blind@listcount}{0}
\setcounter{blind@levelcount}{0}
\setcounter{blind@randomcount}{0}
\setcounter{blind@randommax}{0}
\setcounter{blind@pangramcount}{0}
\setcounter{blind@pangrammax}{0}
\setcounter{section@level}{1}
\setcounter{lstlisting}{0}
}
