\relax 
\providecommand\hyper@newdestlabel[2]{}
\citation{bib:CubeSat}
\@writefile{toc}{\contentsline {chapter}{\numberline {2}CubeSat}{3}{chapter.2}}
\@writefile{lof}{\addvspace {10\p@ }}
\@writefile{lot}{\addvspace {10\p@ }}
\@writefile{lol}{\addvspace {10\p@ }}
\@writefile{toc}{\contentsline {section}{\numberline {2.1}Mechanischer Aufbau}{3}{section.2.1}}
\@writefile{lof}{\contentsline {figure}{\numberline {2.1.1}{\ignorespaces CubeSat-Formen}}{3}{figure.caption.7}}
\newlabel{fig:CubeSat-Formen}{{2.1.1}{3}{CubeSat-Formen}{figure.caption.7}{}}
\newlabel{fig:CubeSat-Formen@cref}{{[figure][1][2,1]2.1.1}{3}}
\citation{bib:CubeSat_Norm}
\@writefile{toc}{\contentsline {subsection}{\numberline {2.1.1}Poly Picosatellite Orbital Deployer (P-POD)}{4}{subsection.2.1.1}}
\@writefile{lof}{\contentsline {figure}{\numberline {2.1.2}{\ignorespaces P-POD}}{4}{figure.caption.8}}
\newlabel{fig:P-POD}{{2.1.2}{4}{P-POD}{figure.caption.8}{}}
\newlabel{fig:P-POD@cref}{{[figure][2][2,1]2.1.2}{4}}
\citation{bib:pc104}
\@writefile{toc}{\contentsline {section}{\numberline {2.2}Elektrischer Aufbau}{5}{section.2.2}}
\newlabel{sec:pc104}{{2.2}{5}{Elektrischer Aufbau}{section.2.2}{}}
\newlabel{sec:pc104@cref}{{[section][2][2]2.2}{5}}
\@writefile{lof}{\contentsline {figure}{\numberline {2.2.1}{\ignorespaces PC/104-Stack}}{5}{figure.caption.9}}
\newlabel{fig:PC/104-Stack}{{2.2.1}{5}{PC/104-Stack}{figure.caption.9}{}}
\newlabel{fig:PC/104-Stack@cref}{{[figure][1][2,2]2.2.1}{5}}
\@writefile{lof}{\contentsline {figure}{\numberline {2.2.2}{\ignorespaces PC/104-Platine}}{6}{figure.caption.10}}
\newlabel{fig:PC/104-Platine}{{2.2.2}{6}{PC/104-Platine}{figure.caption.10}{}}
\newlabel{fig:PC/104-Platine@cref}{{[figure][2][2,2]2.2.2}{6}}
\citation{bib:Handbuch_Raumfahrttechnik}
\@writefile{toc}{\contentsline {section}{\numberline {2.3}Untersysteme}{7}{section.2.3}}
\@writefile{lof}{\contentsline {figure}{\numberline {2.3.1}{\ignorespaces Grobstruktur}}{7}{figure.caption.11}}
\newlabel{fig:Grobstruktur}{{2.3.1}{7}{Grobstruktur}{figure.caption.11}{}}
\newlabel{fig:Grobstruktur@cref}{{[figure][1][2,3]2.3.1}{7}}
\@writefile{toc}{\contentsline {subsection}{\numberline {2.3.1}Erl\IeC {\"a}uterung zu den Untersystemen}{8}{subsection.2.3.1}}
\@writefile{toc}{\contentsline {section}{\numberline {2.4}Interne Kommunikation}{9}{section.2.4}}
\@writefile{lof}{\contentsline {figure}{\numberline {2.4.1}{\ignorespaces Kommunikationsmodell}}{9}{figure.caption.12}}
\newlabel{fig:Kommunikationsmodell}{{2.4.1}{9}{Kommunikationsmodell}{figure.caption.12}{}}
\newlabel{fig:Kommunikationsmodell@cref}{{[figure][1][2,4]2.4.1}{9}}
\@writefile{toc}{\contentsline {subsection}{\numberline {2.4.1}Geschlossenes System}{10}{subsection.2.4.1}}
\@writefile{toc}{\contentsline {subsection}{\numberline {2.4.2}Offenes System}{10}{subsection.2.4.2}}
\@setckpt{03_parts/C_CubeSat}{
\setcounter{page}{11}
\setcounter{equation}{0}
\setcounter{enumi}{0}
\setcounter{enumii}{0}
\setcounter{enumiii}{0}
\setcounter{enumiv}{0}
\setcounter{footnote}{0}
\setcounter{mpfootnote}{0}
\setcounter{part}{0}
\setcounter{chapter}{2}
\setcounter{section}{4}
\setcounter{subsection}{2}
\setcounter{subsubsection}{0}
\setcounter{paragraph}{0}
\setcounter{subparagraph}{0}
\setcounter{figure}{1}
\setcounter{table}{0}
\setcounter{lofdepth}{1}
\setcounter{lotdepth}{1}
\setcounter{nag@c}{51}
\setcounter{parentequation}{0}
\setcounter{Item}{0}
\setcounter{Hfootnote}{0}
\setcounter{bookmark@seq@number}{17}
\setcounter{AM@survey}{0}
\setcounter{ContinuedFloat}{0}
\setcounter{LT@tables}{0}
\setcounter{LT@chunks}{0}
\setcounter{lstnumber}{1}
\setcounter{blindtext}{1}
\setcounter{Blindtext}{5}
\setcounter{blind@countparstart}{0}
\setcounter{blindlist}{0}
\setcounter{blindlistlevel}{0}
\setcounter{blindlist@level}{0}
\setcounter{blind@listcount}{0}
\setcounter{blind@levelcount}{0}
\setcounter{blind@randomcount}{0}
\setcounter{blind@randommax}{0}
\setcounter{blind@pangramcount}{0}
\setcounter{blind@pangrammax}{0}
\setcounter{section@level}{2}
\setcounter{lstlisting}{0}
}
