\relax 
\providecommand\hyper@newdestlabel[2]{}
\citation{bib:CubeSat}
\citation{bib:Wikipedia_Bahngeschwindigkeit}
\@writefile{toc}{\contentsline {section}{\numberline {2.5}Himmelsmechanik}{11}{section.2.5}}
\citation{bib:Kosmische_Geschwindigkeiten}
\@writefile{toc}{\contentsline {subsection}{\numberline {2.5.1}Kosmische Geschwindigkeiten}{12}{subsection.2.5.1}}
\@writefile{toc}{\contentsline {subsubsection}{\nonumberline Erste kosmische Geschwindigkeit}{12}{section*.13}}
\newlabel{eq:Erste_kosmische_Geschwindigkeit_Gleichung}{{\relax 2.1}{12}{Erste kosmische Geschwindigkeit}{equation.2.5.1}{}}
\newlabel{eq:Erste_kosmische_Geschwindigkeit_Gleichung@cref}{{[equation][1][2]\relax 2.1}{12}}
\newlabel{eq:Erste_kosmische_Geschwindigkeit}{{\relax 2.2}{12}{Erste kosmische Geschwindigkeit}{equation.2.5.2}{}}
\newlabel{eq:Erste_kosmische_Geschwindigkeit@cref}{{[equation][2][2]\relax 2.2}{12}}
\@writefile{toc}{\contentsline {subsubsection}{\nonumberline Zweite kosmische Geschwindigkeit}{12}{section*.14}}
\newlabel{eq:Zweite_kosmische_Geschwindigkeit}{{\relax 2.3}{12}{Zweite kosmische Geschwindigkeit}{equation.2.5.3}{}}
\newlabel{eq:Zweite_kosmische_Geschwindigkeit@cref}{{[equation][3][2]\relax 2.3}{12}}
\citation{bib:Satellitenorbit}
\@writefile{toc}{\contentsline {subsection}{\numberline {2.5.2}Satellitenbahnen}{13}{subsection.2.5.2}}
\citation{bib:LEO}
\@writefile{toc}{\contentsline {subsubsection}{\nonumberline Low Earth Orbit}{14}{section*.15}}
\@setckpt{03_parts/D_Himmelsmechanik}{
\setcounter{page}{15}
\setcounter{equation}{3}
\setcounter{enumi}{0}
\setcounter{enumii}{0}
\setcounter{enumiii}{0}
\setcounter{enumiv}{0}
\setcounter{footnote}{0}
\setcounter{mpfootnote}{0}
\setcounter{part}{0}
\setcounter{chapter}{2}
\setcounter{section}{5}
\setcounter{subsection}{2}
\setcounter{subsubsection}{0}
\setcounter{paragraph}{0}
\setcounter{subparagraph}{0}
\setcounter{figure}{0}
\setcounter{table}{0}
\setcounter{lofdepth}{1}
\setcounter{lotdepth}{1}
\setcounter{nag@c}{51}
\setcounter{parentequation}{0}
\setcounter{Item}{0}
\setcounter{Hfootnote}{0}
\setcounter{bookmark@seq@number}{20}
\setcounter{AM@survey}{0}
\setcounter{ContinuedFloat}{0}
\setcounter{LT@tables}{0}
\setcounter{LT@chunks}{0}
\setcounter{lstnumber}{1}
\setcounter{blindtext}{1}
\setcounter{Blindtext}{5}
\setcounter{blind@countparstart}{0}
\setcounter{blindlist}{0}
\setcounter{blindlistlevel}{0}
\setcounter{blindlist@level}{0}
\setcounter{blind@listcount}{0}
\setcounter{blind@levelcount}{0}
\setcounter{blind@randomcount}{0}
\setcounter{blind@randommax}{0}
\setcounter{blind@pangramcount}{0}
\setcounter{blind@pangrammax}{0}
\setcounter{section@level}{3}
\setcounter{lstlisting}{0}
}
