\relax 
\providecommand\hyper@newdestlabel[2]{}
\@writefile{toc}{\contentsline {chapter}{\numberline {3}Energieversorgung}{15}{chapter.3}}
\@writefile{lof}{\addvspace {10\p@ }}
\@writefile{lot}{\addvspace {10\p@ }}
\@writefile{lol}{\addvspace {10\p@ }}
\citation{bib:Gravitationskonstante}
\citation{bib:Erdmasse}
\citation{bib:Erdradius}
\citation{bib:Solarkonstante}
\citation{bib:AE}
\@writefile{toc}{\contentsline {section}{\numberline {3.1}Umgebungsvariablen und Flugeigenschaften}{16}{section.3.1}}
\@writefile{toc}{\contentsline {subsection}{\numberline {3.1.1}Wichtige Konstanten}{16}{subsection.3.1.1}}
\newlabel{eq:Gravitationskonstante}{{\relax 3.1}{16}{Wichtige Konstanten}{equation.3.1.1}{}}
\newlabel{eq:Gravitationskonstante@cref}{{[equation][1][3]\relax 3.1}{16}}
\newlabel{eq:Erdmasse}{{\relax 3.2}{16}{Wichtige Konstanten}{equation.3.1.2}{}}
\newlabel{eq:Erdmasse@cref}{{[equation][2][3]\relax 3.2}{16}}
\newlabel{eq:Erdumfang}{{\relax 3.3}{16}{Wichtige Konstanten}{equation.3.1.3}{}}
\newlabel{eq:Erdumfang@cref}{{[equation][3][3]\relax 3.3}{16}}
\newlabel{eq:Eclipse}{{\relax 3.4}{16}{Wichtige Konstanten}{equation.3.1.4}{}}
\newlabel{eq:Eclipse@cref}{{[equation][4][3]\relax 3.4}{16}}
\newlabel{eq:Sonnenleistung}{{\relax 3.5}{16}{Wichtige Konstanten}{equation.3.1.5}{}}
\newlabel{eq:Sonnenleistung@cref}{{[equation][5][3]\relax 3.5}{16}}
\newlabel{eq:AE}{{\relax 3.6}{16}{Wichtige Konstanten}{equation.3.1.6}{}}
\newlabel{eq:AE@cref}{{[equation][6][3]\relax 3.6}{16}}
\@writefile{toc}{\contentsline {subsection}{\numberline {3.1.2}Flugeigenschaften}{17}{subsection.3.1.2}}
\@writefile{toc}{\contentsline {subsubsection}{\nonumberline Umlaufzeit und Zyklen}{17}{section*.16}}
\newlabel{eq:Umlaufzeit}{{\relax 3.7}{17}{Umlaufzeit und Zyklen}{equation.3.1.7}{}}
\newlabel{eq:Umlaufzeit@cref}{{[equation][7][3]\relax 3.7}{17}}
\newlabel{eq:Minimaler_rsat}{{\relax 3.8}{17}{Umlaufzeit und Zyklen}{equation.3.1.8}{}}
\newlabel{eq:Minimaler_rsat@cref}{{[equation][8][3]\relax 3.8}{17}}
\newlabel{eq:Maximaler_rsat}{{\relax 3.9}{17}{Umlaufzeit und Zyklen}{equation.3.1.9}{}}
\newlabel{eq:Maximaler_rsat@cref}{{[equation][9][3]\relax 3.9}{17}}
\newlabel{eq:Minimale_Umlaufzeit}{{\relax 3.10}{17}{Umlaufzeit und Zyklen}{equation.3.1.10}{}}
\newlabel{eq:Minimale_Umlaufzeit@cref}{{[equation][10][3]\relax 3.10}{17}}
\newlabel{eq:Maximale_Umlaufzeit}{{\relax 3.11}{17}{Umlaufzeit und Zyklen}{equation.3.1.11}{}}
\newlabel{eq:Maximale_Umlaufzeit@cref}{{[equation][11][3]\relax 3.11}{17}}
\newlabel{eq:Minimale_Umlaufzyklen}{{\relax 3.12}{17}{Umlaufzeit und Zyklen}{equation.3.1.12}{}}
\newlabel{eq:Minimale_Umlaufzyklen@cref}{{[equation][12][3]\relax 3.12}{17}}
\newlabel{eq:Maximale_Umlaufzyklen}{{\relax 3.13}{17}{Umlaufzeit und Zyklen}{equation.3.1.13}{}}
\newlabel{eq:Maximale_Umlaufzyklen@cref}{{[equation][13][3]\relax 3.13}{17}}
\citation{bib:Solarkonstante}
\@writefile{toc}{\contentsline {subsection}{\numberline {3.1.3}Umgebungsvariablen}{18}{subsection.3.1.3}}
\@writefile{toc}{\contentsline {subsubsection}{\nonumberline Sonnenintensit\IeC {\"a}t}{18}{section*.17}}
\newlabel{eq:Sonnenintensit\IeC {\"a}t}{{\relax 3.14}{18}{Sonnenintensität}{equation.3.1.14}{}}
\newlabel{eq:Sonnenintensit\IeC {\"a}t@cref}{{[equation][14][3]\relax 3.14}{18}}
\newlabel{eq:Solarkonstante}{{\relax 3.15}{18}{Sonnenintensität}{equation.3.1.15}{}}
\newlabel{eq:Solarkonstante@cref}{{[equation][15][3]\relax 3.15}{18}}
\newlabel{eq:Solarkonstante_solved}{{\relax 3.16}{18}{Sonnenintensität}{equation.3.1.16}{}}
\newlabel{eq:Solarkonstante_solved@cref}{{[equation][16][3]\relax 3.16}{18}}
\@writefile{toc}{\contentsline {subsubsection}{\nonumberline Bestrahlungsdauer pro Zyklus}{19}{section*.18}}
\newlabel{eq:Bestrahlungsdauer_dunkel}{{\relax 3.17}{19}{Bestrahlungsdauer pro Zyklus}{equation.3.1.17}{}}
\newlabel{eq:Bestrahlungsdauer_dunkel@cref}{{[equation][17][3]\relax 3.17}{19}}
\newlabel{eq:Bestrahlungsdauer_hell}{{\relax 3.18}{19}{Bestrahlungsdauer pro Zyklus}{equation.3.1.18}{}}
\newlabel{eq:Bestrahlungsdauer_hell@cref}{{[equation][18][3]\relax 3.18}{19}}
\newlabel{eq:Bestrahlungsdauer_hell_min}{{\relax 3.19}{19}{Bestrahlungsdauer pro Zyklus}{equation.3.1.19}{}}
\newlabel{eq:Bestrahlungsdauer_hell_min@cref}{{[equation][19][3]\relax 3.19}{19}}
\newlabel{eq:Bestrahlungsdauer_hell_max}{{\relax 3.20}{19}{Bestrahlungsdauer pro Zyklus}{equation.3.1.20}{}}
\newlabel{eq:Bestrahlungsdauer_hell_max@cref}{{[equation][20][3]\relax 3.20}{19}}
\newlabel{eq:Bestrahlungsverhaeltniss_min}{{\relax 3.21}{19}{Bestrahlungsdauer pro Zyklus}{equation.3.1.21}{}}
\newlabel{eq:Bestrahlungsverhaeltniss_min@cref}{{[equation][21][3]\relax 3.21}{19}}
\newlabel{eq:Bestrahlungsverhaeltniss_max}{{\relax 3.22}{19}{Bestrahlungsdauer pro Zyklus}{equation.3.1.22}{}}
\newlabel{eq:Bestrahlungsverhaeltniss_max@cref}{{[equation][22][3]\relax 3.22}{19}}
\citation{bib:MMPT}
\@writefile{toc}{\contentsline {section}{\numberline {3.2}Elektronischer Aufbau}{20}{section.3.2}}
\@writefile{lof}{\contentsline {figure}{\numberline {3.2.1}{\ignorespaces Blockdiagramm-ADCS}}{20}{figure.caption.19}}
\newlabel{fig:EPS_Blockdiagramm}{{3.2.1}{20}{Blockdiagramm-ADCS}{figure.caption.19}{}}
\newlabel{fig:EPS_Blockdiagramm@cref}{{[figure][1][3,2]3.2.1}{20}}
\@writefile{toc}{\contentsline {section}{\numberline {3.3}Finaler Entwurf}{21}{section.3.3}}
\@writefile{toc}{\contentsline {subsection}{\numberline {3.3.1}power harvesting}{21}{subsection.3.3.1}}
\@writefile{lof}{\contentsline {figure}{\numberline {3.3.1}{\ignorespaces Schematic - power harvesting}}{21}{figure.caption.20}}
\newlabel{fig:power_harvesting}{{3.3.1}{21}{Schematic - power harvesting}{figure.caption.20}{}}
\newlabel{fig:power_harvesting@cref}{{[figure][1][3,3]3.3.1}{21}}
\citation{bib:slmd481h08l}
\citation{bib:slmd481h08l}
\citation{bib:slmd481h08l}
\citation{bib:slmd481h08l}
\@writefile{toc}{\contentsline {subsubsection}{\nonumberline Solarzelle}{22}{section*.21}}
\newlabel{eq:Solarzelle_Effizienz}{{\relax 3.23}{22}{Solarzelle}{equation.3.3.23}{}}
\newlabel{eq:Solarzelle_Effizienz@cref}{{[equation][23][3]\relax 3.23}{22}}
\newlabel{eq:Solarzelle_Flaeche}{{\relax 3.24}{22}{Solarzelle}{equation.3.3.24}{}}
\newlabel{eq:Solarzelle_Flaeche@cref}{{[equation][24][3]\relax 3.24}{22}}
\newlabel{eq:Solarzelle_Fuellfaktor}{{\relax 3.25}{22}{Solarzelle}{equation.3.3.25}{}}
\newlabel{eq:Solarzelle_Fuellfaktor@cref}{{[equation][25][3]\relax 3.25}{22}}
\newlabel{eq:Solarzelle_Fuellfaktor}{{\relax 3.26}{22}{Solarzelle}{equation.3.3.26}{}}
\newlabel{eq:Solarzelle_Fuellfaktor@cref}{{[equation][26][3]\relax 3.26}{22}}
\newlabel{eq:Strahlungsleistung_auf_Zelle}{{\relax 3.27}{22}{Solarzelle}{equation.3.3.27}{}}
\newlabel{eq:Strahlungsleistung_auf_Zelle@cref}{{[equation][27][3]\relax 3.27}{22}}
\newlabel{eq:Zellenleistung}{{\relax 3.28}{22}{Solarzelle}{equation.3.3.28}{}}
\newlabel{eq:Zellenleistung@cref}{{[equation][28][3]\relax 3.28}{22}}
\newlabel{eq:Leistung_Optimal}{{\relax 3.29}{23}{Solarzelle}{equation.3.3.29}{}}
\newlabel{eq:Leistung_Optimal@cref}{{[equation][29][3]\relax 3.29}{23}}
\newlabel{eq:Leistung_Suboptimal}{{\relax 3.30}{23}{Solarzelle}{equation.3.3.30}{}}
\newlabel{eq:Leistung_Suboptimal@cref}{{[equation][30][3]\relax 3.30}{23}}
\newlabel{eq:Leistung_Orbital}{{\relax 3.31}{23}{Solarzelle}{equation.3.3.31}{}}
\newlabel{eq:Leistung_Orbital@cref}{{[equation][31][3]\relax 3.31}{23}}
\citation{bib:LTC3105}
\citation{bib:SRR1208}
\@writefile{toc}{\contentsline {subsubsection}{\nonumberline MPP-Tracker}{24}{section*.22}}
\@writefile{lof}{\contentsline {figure}{\numberline {3.3.2}{\ignorespaces Schematic - Modul - MPPT}}{24}{figure.caption.23}}
\newlabel{fig:power_mppt}{{3.3.2}{24}{Schematic - Modul - MPPT}{figure.caption.23}{}}
\newlabel{fig:power_mppt@cref}{{[figure][2][3,3]3.3.2}{24}}
\citation{bib:D1}
\newlabel{eq:mppt_ausgangsspannung}{{\relax 3.32}{25}{MPP-Tracker}{equation.3.3.32}{}}
\newlabel{eq:mppt_ausgangsspannung@cref}{{[equation][32][3]\relax 3.32}{25}}
\newlabel{eq:mppt_ausgangsspannung_solved}{{\relax 3.33}{25}{MPP-Tracker}{equation.3.3.33}{}}
\newlabel{eq:mppt_ausgangsspannung_solved@cref}{{[equation][33][3]\relax 3.33}{25}}
\newlabel{eq:mppt_v+_solved}{{\relax 3.34}{25}{MPP-Tracker}{equation.3.3.34}{}}
\newlabel{eq:mppt_v+_solved@cref}{{[equation][34][3]\relax 3.34}{25}}
\citation{bib:ltc4099}
\@writefile{toc}{\contentsline {subsection}{\numberline {3.3.2}battery management system}{26}{subsection.3.3.2}}
\@writefile{toc}{\contentsline {subsection}{\numberline {3.3.3}power distribution}{27}{subsection.3.3.3}}
\@writefile{lof}{\contentsline {figure}{\numberline {3.3.3}{\ignorespaces Schematic - power distribution}}{27}{figure.caption.24}}
\newlabel{fig:power_distribution}{{3.3.3}{27}{Schematic - power distribution}{figure.caption.24}{}}
\newlabel{fig:power_distribution@cref}{{[figure][3][3,3]3.3.3}{27}}
\citation{bib:tps6300}
\citation{bib:INA226}
\@writefile{toc}{\contentsline {subsubsection}{\nonumberline 3,3V Distribution}{28}{section*.25}}
\@writefile{lof}{\contentsline {figure}{\numberline {3.3.4}{\ignorespaces Schematic - 3,3V distribution}}{28}{figure.caption.26}}
\newlabel{fig:3,3V_distribution}{{3.3.4}{28}{Schematic - 3,3V distribution}{figure.caption.26}{}}
\newlabel{fig:3,3V_distribution@cref}{{[figure][4][3,3]3.3.4}{28}}
\citation{bib:tps61020}
\citation{bib:INA226}
\@writefile{toc}{\contentsline {subsubsection}{\nonumberline 5V Distribution}{29}{section*.27}}
\@writefile{lof}{\contentsline {figure}{\numberline {3.3.5}{\ignorespaces Schematic - 5V distribution}}{29}{figure.caption.28}}
\newlabel{fig:5V_distribution}{{3.3.5}{29}{Schematic - 5V distribution}{figure.caption.28}{}}
\newlabel{fig:5V_distribution@cref}{{[figure][5][3,3]3.3.5}{29}}
\newlabel{eq:dcdc_ausgangsspannung}{{\relax 3.35}{29}{5V Distribution}{equation.3.3.35}{}}
\newlabel{eq:dcdc_ausgangsspannung@cref}{{[equation][35][3]\relax 3.35}{29}}
\newlabel{eq:dcdc_lbi}{{\relax 3.36}{29}{5V Distribution}{equation.3.3.36}{}}
\newlabel{eq:dcdc_lbi@cref}{{[equation][36][3]\relax 3.36}{29}}
\citation{bib:attiny85}
\citation{bib:INA226}
\citation{bib:max7324}
\@writefile{toc}{\contentsline {subsection}{\numberline {3.3.4}power controlling}{30}{subsection.3.3.4}}
\@writefile{lof}{\contentsline {figure}{\numberline {3.3.6}{\ignorespaces Schematic - power controlling}}{30}{figure.caption.29}}
\newlabel{fig:power_controlling}{{3.3.6}{30}{Schematic - power controlling}{figure.caption.29}{}}
\newlabel{fig:power_controlling@cref}{{[figure][6][3,3]3.3.6}{30}}
\@writefile{toc}{\contentsline {subsubsection}{\nonumberline ATtiny85}{31}{section*.30}}
\@writefile{lof}{\contentsline {figure}{\numberline {3.3.7}{\ignorespaces Schematic - Modul - ATtiny85}}{31}{figure.caption.31}}
\newlabel{fig:power_controlling_ATtiny85}{{3.3.7}{31}{Schematic - Modul - ATtiny85}{figure.caption.31}{}}
\newlabel{fig:power_controlling_ATtiny85@cref}{{[figure][7][3,3]3.3.7}{31}}
\@writefile{toc}{\contentsline {subsubsection}{\nonumberline Kompletter Schaltplan}{32}{section*.32}}
\@writefile{lof}{\contentsline {figure}{\numberline {3.3.8}{\ignorespaces EPS-Schaltplan}}{32}{figure.caption.33}}
\newlabel{fig:EPS_Schaltplan}{{3.3.8}{32}{EPS-Schaltplan}{figure.caption.33}{}}
\newlabel{fig:EPS_Schaltplan@cref}{{[figure][8][3,3]3.3.8}{32}}
\@writefile{lof}{\contentsline {figure}{\numberline {3.3.9}{\ignorespaces EPS-MPPT}}{33}{figure.caption.34}}
\newlabel{fig:EPS_MPPT}{{3.3.9}{33}{EPS-MPPT}{figure.caption.34}{}}
\newlabel{fig:EPS_MPPT@cref}{{[figure][9][3,3]3.3.9}{33}}
\@writefile{lof}{\contentsline {figure}{\numberline {3.3.10}{\ignorespaces EPS-ATtiny85}}{34}{figure.caption.35}}
\newlabel{fig:EPS_ATtiny85}{{3.3.10}{34}{EPS-ATtiny85}{figure.caption.35}{}}
\newlabel{fig:EPS_ATtiny85@cref}{{[figure][10][3,3]3.3.10}{34}}
\@writefile{lof}{\contentsline {figure}{\numberline {3.3.11}{\ignorespaces EPS-3,3V-Distribution}}{35}{figure.caption.36}}
\newlabel{fig:EPS_3,3V-Distribution}{{3.3.11}{35}{EPS-3,3V-Distribution}{figure.caption.36}{}}
\newlabel{fig:EPS_3,3V-Distribution@cref}{{[figure][11][3,3]3.3.11}{35}}
\@writefile{lof}{\contentsline {figure}{\numberline {3.3.12}{\ignorespaces EPS-5V-Distribution}}{36}{figure.caption.37}}
\newlabel{fig:EPS_5V-Distribution}{{3.3.12}{36}{EPS-5V-Distribution}{figure.caption.37}{}}
\newlabel{fig:EPS_5V-Distribution@cref}{{[figure][12][3,3]3.3.12}{36}}
\@setckpt{03_parts/E_EPS}{
\setcounter{page}{37}
\setcounter{equation}{36}
\setcounter{enumi}{0}
\setcounter{enumii}{0}
\setcounter{enumiii}{0}
\setcounter{enumiv}{0}
\setcounter{footnote}{0}
\setcounter{mpfootnote}{0}
\setcounter{part}{0}
\setcounter{chapter}{3}
\setcounter{section}{3}
\setcounter{subsection}{4}
\setcounter{subsubsection}{0}
\setcounter{paragraph}{0}
\setcounter{subparagraph}{0}
\setcounter{figure}{12}
\setcounter{table}{0}
\setcounter{lofdepth}{1}
\setcounter{lotdepth}{1}
\setcounter{nag@c}{51}
\setcounter{parentequation}{0}
\setcounter{Item}{0}
\setcounter{Hfootnote}{0}
\setcounter{bookmark@seq@number}{31}
\setcounter{AM@survey}{0}
\setcounter{ContinuedFloat}{0}
\setcounter{LT@tables}{0}
\setcounter{LT@chunks}{0}
\setcounter{lstnumber}{1}
\setcounter{blindtext}{1}
\setcounter{Blindtext}{5}
\setcounter{blind@countparstart}{0}
\setcounter{blindlist}{0}
\setcounter{blindlistlevel}{0}
\setcounter{blindlist@level}{0}
\setcounter{blind@listcount}{0}
\setcounter{blind@levelcount}{0}
\setcounter{blind@randomcount}{0}
\setcounter{blind@randommax}{0}
\setcounter{blind@pangramcount}{0}
\setcounter{blind@pangrammax}{0}
\setcounter{section@level}{3}
\setcounter{lstlisting}{0}
}
