\relax 
\providecommand\hyper@newdestlabel[2]{}
\citation{bib:Stabilisierung}
\citation{bib:Drallrad}
\@writefile{toc}{\contentsline {chapter}{\numberline {4}Lageregelung}{37}{chapter.4}}
\@writefile{lof}{\addvspace {10\p@ }}
\@writefile{lot}{\addvspace {10\p@ }}
\@writefile{lol}{\addvspace {10\p@ }}
\@writefile{toc}{\contentsline {section}{\numberline {4.1}Spinstabilisierung}{37}{section.4.1}}
\@writefile{toc}{\contentsline {section}{\numberline {4.2}Lagestabilisierung}{37}{section.4.2}}
\@writefile{toc}{\contentsline {subsection}{\numberline {4.2.1}Passive Lagestabilisierung}{37}{subsection.4.2.1}}
\@writefile{toc}{\contentsline {subsection}{\numberline {4.2.2}Aktive Lagestabilisierung}{38}{subsection.4.2.2}}
\@writefile{lof}{\contentsline {figure}{\numberline {4.2.1}{\ignorespaces Interaktion der Magnetfelder}}{38}{figure.caption.38}}
\newlabel{fig:Interaktion der Magnetfelder}{{4.2.1}{38}{Interaktion der Magnetfelder}{figure.caption.38}{}}
\newlabel{fig:Interaktion der Magnetfelder@cref}{{[figure][1][4,2]4.2.1}{38}}
\citation{bib:Erdradius}
\citation{bib:Erdmagnetfeld}
\@writefile{toc}{\contentsline {section}{\numberline {4.3}Auslegung der Spulen}{39}{section.4.3}}
\@writefile{toc}{\contentsline {subsection}{\numberline {4.3.1}Erdmagnetfeld}{39}{subsection.4.3.1}}
\newlabel{eq:Erdradius}{{\relax 4.1}{39}{Erdmagnetfeld}{equation.4.3.1}{}}
\newlabel{eq:Erdradius@cref}{{[equation][1][4]\relax 4.1}{39}}
\newlabel{eq:Dipolmoment}{{\relax 4.2}{39}{Erdmagnetfeld}{equation.4.3.2}{}}
\newlabel{eq:Dipolmoment@cref}{{[equation][2][4]\relax 4.2}{39}}
\newlabel{eq:S\IeC {\"a}kularvariation}{{\relax 4.6}{39}{Erdmagnetfeld}{equation.4.3.6}{}}
\newlabel{eq:S\IeC {\"a}kularvariation@cref}{{[equation][6][4]\relax 4.6}{39}}
\citation{bib:Geographische_Breite}
\newlabel{eq:Dipolfeld}{{\relax 4.7}{40}{Erdmagnetfeld}{equation.4.3.7}{}}
\newlabel{eq:Dipolfeld@cref}{{[equation][7][4]\relax 4.7}{40}}
\@writefile{lof}{\contentsline {figure}{\numberline {4.3.1}{\ignorespaces Erdmagnetfeld - Verlauf}}{40}{figure.caption.39}}
\newlabel{fig:Erdmagnetfeld - Verlauf}{{4.3.1}{40}{Erdmagnetfeld - Verlauf}{figure.caption.39}{}}
\newlabel{fig:Erdmagnetfeld - Verlauf@cref}{{[figure][1][4,3]4.3.1}{40}}
\newlabel{eq:Minimales_Magnetfeld}{{\relax 4.8}{41}{Erdmagnetfeld}{equation.4.3.8}{}}
\newlabel{eq:Minimales_Magnetfeld@cref}{{[equation][8][4]\relax 4.8}{41}}
\newlabel{eq:Minimales_Magnetfeld_solved}{{\relax 4.9}{41}{Erdmagnetfeld}{equation.4.3.9}{}}
\newlabel{eq:Minimales_Magnetfeld_solved@cref}{{[equation][9][4]\relax 4.9}{41}}
\newlabel{eq:Maximales_Magnetfeld_solved}{{\relax 4.10}{41}{Erdmagnetfeld}{equation.4.3.10}{}}
\newlabel{eq:Maximales_Magnetfeld_solved@cref}{{[equation][10][4]\relax 4.10}{41}}
\@writefile{lof}{\contentsline {figure}{\numberline {4.3.2}{\ignorespaces Erdmagnetfeld - LEO}}{41}{figure.caption.40}}
\newlabel{fig:Erdmagnetfeld - LEO}{{4.3.2}{41}{Erdmagnetfeld - LEO}{figure.caption.40}{}}
\newlabel{fig:Erdmagnetfeld - LEO@cref}{{[figure][2][4,3]4.3.2}{41}}
\citation{bib:Homogener_Wuerfel}
\citation{bib:CubeSat_Norm}
\@writefile{toc}{\contentsline {subsection}{\numberline {4.3.2}Mechanische Berechnungen}{42}{subsection.4.3.2}}
\@writefile{toc}{\contentsline {subsubsection}{\nonumberline Tr\IeC {\"a}gheitsmoment}{42}{section*.41}}
\newlabel{eq:Tr\IeC {\"a}gheitsmoment}{{\relax 4.11}{42}{Trägheitsmoment}{equation.4.3.11}{}}
\newlabel{eq:Tr\IeC {\"a}gheitsmoment@cref}{{[equation][11][4]\relax 4.11}{42}}
\newlabel{eq:Tr\IeC {\"a}gheitsmoment_solved}{{\relax 4.12}{42}{Trägheitsmoment}{equation.4.3.12}{}}
\newlabel{eq:Tr\IeC {\"a}gheitsmoment_solved@cref}{{[equation][12][4]\relax 4.12}{42}}
\@writefile{toc}{\contentsline {subsubsection}{\nonumberline Winkelbeschleunigung}{42}{section*.42}}
\newlabel{eq:Winkelbeschleunigung_Grundgleichung}{{\relax 4.13}{42}{Winkelbeschleunigung}{equation.4.3.13}{}}
\newlabel{eq:Winkelbeschleunigung_Grundgleichung@cref}{{[equation][13][4]\relax 4.13}{42}}
\newlabel{eq:Winkelbeschleunigung_1}{{\relax 4.14}{42}{Winkelbeschleunigung}{equation.4.3.14}{}}
\newlabel{eq:Winkelbeschleunigung_1@cref}{{[equation][14][4]\relax 4.14}{42}}
\newlabel{eq:Winkelbeschleunigung_2}{{\relax 4.15}{42}{Winkelbeschleunigung}{equation.4.3.15}{}}
\newlabel{eq:Winkelbeschleunigung_2@cref}{{[equation][15][4]\relax 4.15}{42}}
\newlabel{eq:Winkelbeschleunigung}{{\relax 4.16}{43}{Winkelbeschleunigung}{equation.4.3.16}{}}
\newlabel{eq:Winkelbeschleunigung@cref}{{[equation][16][4]\relax 4.16}{43}}
\@writefile{toc}{\contentsline {subsubsection}{\nonumberline Moment}{43}{section*.43}}
\newlabel{eq:Mechanisches_Moment}{{\relax 4.17}{43}{Moment}{equation.4.3.17}{}}
\newlabel{eq:Mechanisches_Moment@cref}{{[equation][17][4]\relax 4.17}{43}}
\newlabel{eq:Mechanisches_Moment_solved}{{\relax 4.18}{43}{Moment}{equation.4.3.18}{}}
\newlabel{eq:Mechanisches_Moment_solved@cref}{{[equation][18][4]\relax 4.18}{43}}
\newlabel{eq:Magnetisches_Moment}{{\relax 4.19}{43}{Moment}{equation.4.3.19}{}}
\newlabel{eq:Magnetisches_Moment@cref}{{[equation][19][4]\relax 4.19}{43}}
\citation{bib:Spule}
\@writefile{toc}{\contentsline {subsection}{\numberline {4.3.3}Spule dimensionieren}{44}{subsection.4.3.3}}
\@writefile{toc}{\contentsline {subsubsection}{\nonumberline Kupferlackdraht}{44}{section*.44}}
\newlabel{eq:Drahtdurchmesser}{{\relax 4.20}{44}{Kupferlackdraht}{equation.4.3.20}{}}
\newlabel{eq:Drahtdurchmesser@cref}{{[equation][20][4]\relax 4.20}{44}}
\newlabel{eq:Drahtdurchmesser_Lack}{{\relax 4.21}{44}{Kupferlackdraht}{equation.4.3.21}{}}
\newlabel{eq:Drahtdurchmesser_Lack@cref}{{[equation][21][4]\relax 4.21}{44}}
\newlabel{eq:Gleichstromwiderstand_Draht}{{\relax 4.22}{44}{Kupferlackdraht}{equation.4.3.22}{}}
\newlabel{eq:Gleichstromwiderstand_Draht@cref}{{[equation][22][4]\relax 4.22}{44}}
\@writefile{toc}{\contentsline {subsubsection}{\nonumberline Abmessungen}{45}{section*.45}}
\@writefile{lof}{\contentsline {figure}{\numberline {4.3.3}{\ignorespaces Spule - Querschnitt}}{45}{figure.caption.46}}
\newlabel{fig:Spule - Querschnitt}{{4.3.3}{45}{Spule - Querschnitt}{figure.caption.46}{}}
\newlabel{fig:Spule - Querschnitt@cref}{{[figure][3][4,3]4.3.3}{45}}
\newlabel{eq:Spule_Aussenlaenge}{{\relax 4.23}{45}{Abmessungen}{equation.4.3.23}{}}
\newlabel{eq:Spule_Aussenlaenge@cref}{{[equation][23][4]\relax 4.23}{45}}
\newlabel{eq:Spule_H\IeC {\"o}he}{{\relax 4.24}{45}{Abmessungen}{equation.4.3.24}{}}
\newlabel{eq:Spule_H\IeC {\"o}he@cref}{{[equation][24][4]\relax 4.24}{45}}
\newlabel{eq:Spule_Innenradius}{{\relax 4.25}{45}{Abmessungen}{equation.4.3.25}{}}
\newlabel{eq:Spule_Innenradius@cref}{{[equation][25][4]\relax 4.25}{45}}
\newlabel{eq:Magnetische_Feldkonstante}{{\relax 4.26}{45}{Abmessungen}{equation.4.3.26}{}}
\newlabel{eq:Magnetische_Feldkonstante@cref}{{[equation][26][4]\relax 4.26}{45}}
\citation{bib:Windungen}
\newlabel{eq:Drahtquerschnitt}{{\relax 4.27}{46}{Abmessungen}{equation.4.3.27}{}}
\newlabel{eq:Drahtquerschnitt@cref}{{[equation][27][4]\relax 4.27}{46}}
\newlabel{eq:Drahtquerschnitt_Lack}{{\relax 4.28}{46}{Abmessungen}{equation.4.3.28}{}}
\newlabel{eq:Drahtquerschnitt_Lack@cref}{{[equation][28][4]\relax 4.28}{46}}
\newlabel{eq:Spule_Windungen}{{\relax 4.29}{46}{Abmessungen}{equation.4.3.29}{}}
\newlabel{eq:Spule_Windungen@cref}{{[equation][29][4]\relax 4.29}{46}}
\@writefile{lof}{\contentsline {figure}{\numberline {4.3.4}{\ignorespaces Ann\IeC {\"a}herung zur Berechnung des Querschnitts der Spule}}{46}{figure.caption.47}}
\newlabel{fig:Ann\IeC {\"a}herung zur Berechnung des Querschnitts der Spule}{{4.3.4}{46}{Annäherung zur Berechnung des Querschnitts der Spule}{figure.caption.47}{}}
\newlabel{fig:Ann\IeC {\"a}herung zur Berechnung des Querschnitts der Spule@cref}{{[figure][4][4,3]4.3.4}{46}}
\newlabel{eq:Spule_Querschnitt}{{\relax 4.30}{46}{Abmessungen}{equation.4.3.30}{}}
\newlabel{eq:Spule_Querschnitt@cref}{{[equation][30][4]\relax 4.30}{46}}
\newlabel{eq:Spule_Breite}{{\relax 4.31}{46}{Abmessungen}{equation.4.3.31}{}}
\newlabel{eq:Spule_Breite@cref}{{[equation][31][4]\relax 4.31}{46}}
\newlabel{eq:Spule_Mittlere_Radius}{{\relax 4.32}{46}{Abmessungen}{equation.4.3.32}{}}
\newlabel{eq:Spule_Mittlere_Radius@cref}{{[equation][32][4]\relax 4.32}{46}}
\citation{bib:induktivitaet}
\newlabel{eq:Spule_Mittlere_Umfang}{{\relax 4.33}{47}{Abmessungen}{equation.4.3.33}{}}
\newlabel{eq:Spule_Mittlere_Umfang@cref}{{[equation][33][4]\relax 4.33}{47}}
\newlabel{eq:Spule_Innere_L\IeC {\"a}nge}{{\relax 4.34}{47}{Abmessungen}{equation.4.3.34}{}}
\newlabel{eq:Spule_Innere_L\IeC {\"a}nge@cref}{{[equation][34][4]\relax 4.34}{47}}
\newlabel{eq:Spule_Mittlere_Feldlinienl\IeC {\"a}nge}{{\relax 4.35}{47}{Abmessungen}{equation.4.3.35}{}}
\newlabel{eq:Spule_Mittlere_Feldlinienl\IeC {\"a}nge@cref}{{[equation][35][4]\relax 4.35}{47}}
\newlabel{eq:Spule_Leiterl\IeC {\"a}nge}{{\relax 4.36}{47}{Abmessungen}{equation.4.3.36}{}}
\newlabel{eq:Spule_Leiterl\IeC {\"a}nge@cref}{{[equation][36][4]\relax 4.36}{47}}
\newlabel{eq:Leiterwiderstand_Leiter}{{\relax 4.37}{47}{Abmessungen}{equation.4.3.37}{}}
\newlabel{eq:Leiterwiderstand_Leiter@cref}{{[equation][37][4]\relax 4.37}{47}}
\newlabel{eq:Induktivit\IeC {\"a}t_Leiter}{{\relax 4.38}{47}{Abmessungen}{equation.4.3.38}{}}
\newlabel{eq:Induktivit\IeC {\"a}t_Leiter@cref}{{[equation][38][4]\relax 4.38}{47}}
\@setckpt{03_parts/F_ADCS_Chilli}{
\setcounter{page}{48}
\setcounter{equation}{38}
\setcounter{enumi}{0}
\setcounter{enumii}{0}
\setcounter{enumiii}{0}
\setcounter{enumiv}{0}
\setcounter{footnote}{0}
\setcounter{mpfootnote}{0}
\setcounter{part}{0}
\setcounter{chapter}{4}
\setcounter{section}{3}
\setcounter{subsection}{3}
\setcounter{subsubsection}{0}
\setcounter{paragraph}{0}
\setcounter{subparagraph}{0}
\setcounter{figure}{4}
\setcounter{table}{0}
\setcounter{lofdepth}{1}
\setcounter{lotdepth}{1}
\setcounter{nag@c}{51}
\setcounter{parentequation}{0}
\setcounter{Item}{0}
\setcounter{Hfootnote}{0}
\setcounter{bookmark@seq@number}{40}
\setcounter{AM@survey}{0}
\setcounter{ContinuedFloat}{0}
\setcounter{LT@tables}{0}
\setcounter{LT@chunks}{0}
\setcounter{lstnumber}{1}
\setcounter{blindtext}{1}
\setcounter{Blindtext}{5}
\setcounter{blind@countparstart}{0}
\setcounter{blindlist}{0}
\setcounter{blindlistlevel}{0}
\setcounter{blindlist@level}{0}
\setcounter{blind@listcount}{0}
\setcounter{blind@levelcount}{0}
\setcounter{blind@randomcount}{0}
\setcounter{blind@randommax}{0}
\setcounter{blind@pangramcount}{0}
\setcounter{blind@pangrammax}{0}
\setcounter{section@level}{3}
\setcounter{lstlisting}{0}
}
