\relax 
\providecommand\hyper@newdestlabel[2]{}
\@writefile{toc}{\contentsline {section}{\numberline {4.4}Elektronischer Aufbau}{48}{section.4.4}}
\@writefile{lof}{\contentsline {figure}{\numberline {4.4.1}{\ignorespaces Blockdiagramm-ADCS}}{48}{figure.caption.48}}
\newlabel{fig:ADCS_Blockdiagramm}{{4.4.1}{48}{Blockdiagramm-ADCS}{figure.caption.48}{}}
\newlabel{fig:ADCS_Blockdiagramm@cref}{{[figure][1][4,4]4.4.1}{48}}
\citation{bib:LSM9DS0}
\citation{bib:LSM9DS0}
\citation{bib:INA226}
\citation{bib:TPS62063}
\citation{bib:PCA9306}
\@writefile{toc}{\contentsline {subsection}{\numberline {4.4.1}Sensoren und Aktoren der Schaltung}{49}{subsection.4.4.1}}
\@writefile{toc}{\contentsline {subsubsection}{\nonumberline Definition Sensor:}{49}{section*.49}}
\@writefile{toc}{\contentsline {subsubsection}{\nonumberline Verwendete Sensoren}{49}{section*.50}}
\@writefile{toc}{\contentsline {subsubsection}{\nonumberline Definition Wandler:}{49}{section*.51}}
\@writefile{toc}{\contentsline {subsubsection}{\nonumberline Verwendete Wandler}{49}{section*.52}}
\citation{bib:DRV8830}
\@writefile{toc}{\contentsline {subsubsection}{\nonumberline Definition Aktor:}{50}{section*.53}}
\@writefile{toc}{\contentsline {subsubsection}{\nonumberline Verwendete Aktoren}{50}{section*.54}}
\citation{bib:TPS62063}
\@writefile{toc}{\contentsline {section}{\numberline {4.5}Finaler Entwurf}{51}{section.4.5}}
\@writefile{toc}{\contentsline {subsection}{\numberline {4.5.1}Spannungsregelung}{51}{subsection.4.5.1}}
\@writefile{lof}{\contentsline {figure}{\numberline {4.5.1}{\ignorespaces Step-Down-Wandler-3.3V}}{51}{figure.caption.55}}
\newlabel{fig:Stepdown-Converter}{{4.5.1}{51}{Step-Down-Wandler-3.3V}{figure.caption.55}{}}
\newlabel{fig:Stepdown-Converter@cref}{{[figure][1][4,5]4.5.1}{51}}
\@writefile{toc}{\contentsline {subsubsection}{\nonumberline Funktion}{51}{section*.56}}
\citation{bib:TPS62063}
\@writefile{toc}{\contentsline {subsubsection}{\nonumberline Berechnung der Bauteilwerte}{52}{section*.57}}
\newlabel{eq:geg_Bauteilwerte}{{4.5.1}{52}{Berechnung der Bauteilwerte}{section*.57}{}}
\newlabel{eq:geg_Bauteilwerte@cref}{{[subsection][1][4,5]4.5.1}{52}}
\@writefile{toc}{\contentsline {subsubsection}{\nonumberline Dimensionierung der Widerst\IeC {\"a}nde}{52}{section*.58}}
\newlabel{eq:Step_Down_Converter_R1}{{\relax 4.39}{52}{Dimensionierung der Widerstände}{equation.4.5.39}{}}
\newlabel{eq:Step_Down_Converter_R1@cref}{{[equation][39][4]\relax 4.39}{52}}
\newlabel{eq:Step_Down_Gesamt_R}{{\relax 4.40}{52}{Dimensionierung der Widerstände}{equation.4.5.40}{}}
\newlabel{eq:Step_Down_Gesamt_R@cref}{{[equation][40][4]\relax 4.40}{52}}
\@writefile{toc}{\contentsline {subsubsection}{\nonumberline Dimensionierung der Spulen und Kapazit\IeC {\"a}ten}{52}{section*.59}}
\newlabel{eq:Step_Down_Converter_Cff}{{\relax 4.41}{52}{Dimensionierung der Spulen und Kapazitäten}{equation.4.5.41}{}}
\newlabel{eq:Step_Down_Converter_Cff@cref}{{[equation][41][4]\relax 4.41}{52}}
\newlabel{eq:Step_Down_Converter_fC}{{\relax 4.42}{52}{Dimensionierung der Spulen und Kapazitäten}{equation.4.5.42}{}}
\newlabel{eq:Step_Down_Converter_fC@cref}{{[equation][42][4]\relax 4.42}{52}}
\citation{bib:PCA9306}
\@writefile{toc}{\contentsline {subsection}{\numberline {4.5.2}Daten\IeC {\"u}bertragung}{53}{subsection.4.5.2}}
\@writefile{lof}{\contentsline {figure}{\numberline {4.5.2}{\ignorespaces I$^2$C-Spannung-\IeC {\"U}bersetzer-5V}}{53}{figure.caption.60}}
\newlabel{fig:I2C-Level-Shifter}{{4.5.2}{53}{I$^2$C-Spannung-Übersetzer-5V}{figure.caption.60}{}}
\newlabel{fig:I2C-Level-Shifter@cref}{{[figure][2][4,5]4.5.2}{53}}
\@writefile{toc}{\contentsline {subsubsection}{\nonumberline Funktion}{53}{section*.61}}
\citation{bib:PCA9306}
\@writefile{toc}{\contentsline {subsubsection}{\nonumberline Bauteile}{54}{section*.62}}
\citation{bib:I2C}
\citation{bib:I2C}
\citation{bib:I2C}
\@writefile{toc}{\contentsline {subsection}{\numberline {4.5.3}I$^2$C}{55}{subsection.4.5.3}}
\@writefile{toc}{\contentsline {subsubsection}{\nonumberline Bit\IeC {\"u}bertragung}{55}{section*.63}}
\@writefile{lof}{\contentsline {figure}{\numberline {4.5.3}{\ignorespaces I$^2$C Bit\IeC {\"u}bertragung}}{55}{figure.caption.64}}
\newlabel{fig:I2C-Bit\IeC {\"u}bertragung}{{4.5.3}{55}{I$^2$C Bitübertragung}{figure.caption.64}{}}
\newlabel{fig:I2C-Bit\IeC {\"u}bertragung@cref}{{[figure][3][4,5]4.5.3}{55}}
\citation{bib:I2C}
\citation{bib:I2C}
\citation{bib:I2C}
\citation{bib:I2C}
\citation{bib:I2C}
\citation{bib:I2C}
\@writefile{toc}{\contentsline {subsubsection}{\nonumberline Start- und Stoppbedingungen}{56}{section*.65}}
\@writefile{toc}{\contentsline {subsubsection}{\nonumberline Startbedingung}{56}{section*.66}}
\@writefile{lof}{\contentsline {figure}{\numberline {4.5.4}{\ignorespaces I$^2$C Startbedingung}}{56}{figure.caption.67}}
\newlabel{fig:I2C-Startbedingung}{{4.5.4}{56}{I$^2$C Startbedingung}{figure.caption.67}{}}
\newlabel{fig:I2C-Startbedingung@cref}{{[figure][4][4,5]4.5.4}{56}}
\@writefile{toc}{\contentsline {subsubsection}{\nonumberline Stoppbedingung}{56}{section*.68}}
\@writefile{lof}{\contentsline {figure}{\numberline {4.5.5}{\ignorespaces I$^2$C Stoppbedingung}}{56}{figure.caption.69}}
\newlabel{fig:I2C-Stoppbedingung}{{4.5.5}{56}{I$^2$C Stoppbedingung}{figure.caption.69}{}}
\newlabel{fig:I2C-Stoppbedingung@cref}{{[figure][5][4,5]4.5.5}{56}}
\@writefile{toc}{\contentsline {subsection}{\numberline {4.5.4}Berechnung der Pull-Up-Widerst\IeC {\"a}nde}{57}{subsection.4.5.4}}
\@writefile{lof}{\contentsline {figure}{\numberline {4.5.6}{\ignorespaces Pull-Up-Widerst\IeC {\"a}nde}}{57}{figure.caption.70}}
\newlabel{fig:Pull-Up-Widerst\IeC {\"a}nde}{{4.5.6}{57}{Pull-Up-Widerstände}{figure.caption.70}{}}
\newlabel{fig:Pull-Up-Widerst\IeC {\"a}nde@cref}{{[figure][6][4,5]4.5.6}{57}}
\@writefile{toc}{\contentsline {subsubsection}{\nonumberline Funktion}{57}{section*.71}}
\citation{bib:Pullup_Berechnung}
\citation{bib:PCA9306}
\citation{bib:PCA9306}
\@writefile{toc}{\contentsline {subsubsection}{\nonumberline Berechnung f\IeC {\"u}r 3,3V-Kreis}{58}{section*.72}}
\@writefile{toc}{\contentsline {subsubsection}{\nonumberline Maximaler Pull-Up-Widerstand}{58}{section*.73}}
\newlabel{eq:Pullup_3.3V_max}{{\relax 4.43}{58}{Maximaler Pull-Up-Widerstand}{equation.4.5.43}{}}
\newlabel{eq:Pullup_3.3V_max@cref}{{[equation][43][4]\relax 4.43}{58}}
\@writefile{toc}{\contentsline {subsubsection}{\nonumberline Minimaler Pull-Up-Widerstand}{58}{section*.74}}
\newlabel{eq:Pullup_3.3V_min}{{\relax 4.44}{58}{Minimaler Pull-Up-Widerstand}{equation.4.5.44}{}}
\newlabel{eq:Pullup_3.3V_min@cref}{{[equation][44][4]\relax 4.44}{58}}
\citation{bib:Pullup_Berechnung}
\citation{bib:PCA9306}
\citation{bib:PCA9306}
\@writefile{toc}{\contentsline {subsubsection}{\nonumberline Berechnung f\IeC {\"u}r 5V-Kreis}{59}{section*.75}}
\@writefile{toc}{\contentsline {subsubsection}{\nonumberline Maximaler Pull-Up-Widerstand}{59}{section*.76}}
\newlabel{eq:Pullup_5V_max}{{\relax 4.45}{59}{Maximaler Pull-Up-Widerstand}{equation.4.5.45}{}}
\newlabel{eq:Pullup_5V_max@cref}{{[equation][45][4]\relax 4.45}{59}}
\@writefile{toc}{\contentsline {subsubsection}{\nonumberline Minimaler Pull-Up-Widerstand}{59}{section*.77}}
\newlabel{eq:Pullup_5V_min}{{\relax 4.46}{59}{Minimaler Pull-Up-Widerstand}{equation.4.5.46}{}}
\newlabel{eq:Pullup_5V_min@cref}{{[equation][46][4]\relax 4.46}{59}}
\citation{bib:LSM9DS0}
\citation{bib:LSM9DS0}
\@writefile{toc}{\contentsline {subsection}{\numberline {4.5.5}Gyrosensor und Magnetometer}{60}{subsection.4.5.5}}
\@writefile{lof}{\contentsline {figure}{\numberline {4.5.7}{\ignorespaces Gyro + Magnetometer}}{60}{figure.caption.78}}
\newlabel{fig:Gyro-Magnetometer}{{4.5.7}{60}{Gyro + Magnetometer}{figure.caption.78}{}}
\newlabel{fig:Gyro-Magnetometer@cref}{{[figure][7][4,5]4.5.7}{60}}
\@writefile{toc}{\contentsline {subsubsection}{\nonumberline Funktion}{60}{section*.79}}
\citation{bib:INA226}
\citation{bib:INA226}
\@writefile{toc}{\contentsline {subsection}{\numberline {4.5.6}Stromsensor}{61}{subsection.4.5.6}}
\@writefile{lof}{\contentsline {figure}{\numberline {4.5.8}{\ignorespaces Stromsensor}}{61}{figure.caption.80}}
\newlabel{fig:Stromsensor}{{4.5.8}{61}{Stromsensor}{figure.caption.80}{}}
\newlabel{fig:Stromsensor@cref}{{[figure][8][4,5]4.5.8}{61}}
\@writefile{toc}{\contentsline {subsubsection}{\nonumberline Funktion}{61}{section*.81}}
\citation{bib:DRV8830}
\citation{bib:DRV8830}
\@writefile{toc}{\contentsline {subsection}{\numberline {4.5.7}Motor Driver}{62}{subsection.4.5.7}}
\newlabel{motor_driver}{{4.5.7}{62}{Motor Driver}{subsection.4.5.7}{}}
\newlabel{motor_driver@cref}{{[subsection][7][4,5]4.5.7}{62}}
\@writefile{lof}{\contentsline {figure}{\numberline {4.5.9}{\ignorespaces Motor Driver}}{62}{figure.caption.82}}
\newlabel{fig:Motor-Driver}{{4.5.9}{62}{Motor Driver}{figure.caption.82}{}}
\newlabel{fig:Motor-Driver@cref}{{[figure][9][4,5]4.5.9}{62}}
\@writefile{toc}{\contentsline {subsubsection}{\nonumberline Funktion}{62}{section*.83}}
\@writefile{toc}{\contentsline {subsection}{\numberline {4.5.8}Anschl\IeC {\"u}sse}{63}{subsection.4.5.8}}
\@writefile{lof}{\contentsline {figure}{\numberline {4.5.10}{\ignorespaces Anschl\IeC {\"u}sse}}{63}{figure.caption.84}}
\newlabel{fig:Anschl\IeC {\"u}sse}{{4.5.10}{63}{Anschlüsse}{figure.caption.84}{}}
\newlabel{fig:Anschl\IeC {\"u}sse@cref}{{[figure][10][4,5]4.5.10}{63}}
\@writefile{toc}{\contentsline {section}{\numberline {4.6}Fertigung}{64}{section.4.6}}
\@writefile{toc}{\contentsline {subsection}{\numberline {4.6.1}Layoutentwurf}{64}{subsection.4.6.1}}
\@writefile{toc}{\contentsline {subsubsection}{\nonumberline St\IeC {\"u}ckliste}{64}{section*.85}}
\@writefile{lot}{\contentsline {table}{\numberline {4.6.1}{\ignorespaces Magnettorquer St\IeC {\"u}ckliste\relax }}{64}{table.4.6.1}}
\newlabel{tab:Magnettorquer_St\IeC {\"u}ckliste}{{4.6.1}{64}{Stückliste}{table.4.6.1}{}}
\newlabel{tab:Magnettorquer_St\IeC {\"u}ckliste@cref}{{[table][1][4,6]4.6.1}{64}}
\@writefile{lot}{\contentsline {table}{\numberline {4.6.1}{\ignorespaces Magnettorquer St\IeC {\"u}ckliste\relax }}{65}{table.4.6.1}}
\newlabel{tab:Magnettorquer_St\IeC {\"u}ckliste}{{4.6.1}{65}{Stückliste}{table.4.6.1}{}}
\newlabel{tab:Magnettorquer_St\IeC {\"u}ckliste@cref}{{[table][1][4,6]4.6.1}{65}}
\gdef \LT@i {\LT@entry 
    {3}{46.92575pt}\LT@entry 
    {1}{111.58464pt}\LT@entry 
    {1}{125.81102pt}\LT@entry 
    {1}{111.58464pt}}
\@writefile{lot}{\contentsline {table}{\numberline {4.6.1}{\ignorespaces Magnettorquer St\IeC {\"u}ckliste\relax }}{66}{table.4.6.1}}
\newlabel{tab:Magnettorquer_St\IeC {\"u}ckliste}{{4.6.1}{66}{Stückliste}{table.4.6.1}{}}
\newlabel{tab:Magnettorquer_St\IeC {\"u}ckliste@cref}{{[table][1][4,6]4.6.1}{66}}
\@writefile{toc}{\contentsline {subsubsection}{\nonumberline Kompletter Schaltplan}{67}{section*.86}}
\@writefile{lof}{\contentsline {figure}{\numberline {4.6.1}{\ignorespaces Magnettorquer-Schaltplan}}{67}{figure.caption.87}}
\newlabel{fig:Magnettorquer_Schaltplan}{{4.6.1}{67}{Magnettorquer-Schaltplan}{figure.caption.87}{}}
\newlabel{fig:Magnettorquer_Schaltplan@cref}{{[figure][1][4,6]4.6.1}{67}}
\@writefile{lof}{\contentsline {figure}{\numberline {4.6.2}{\ignorespaces Magnettorquer PWM-Makro}}{68}{figure.caption.88}}
\newlabel{fig:Magnettorquer_PWM_Makro}{{4.6.2}{68}{Magnettorquer PWM-Makro}{figure.caption.88}{}}
\newlabel{fig:Magnettorquer_PWM_Makro@cref}{{[figure][2][4,6]4.6.2}{68}}
\@writefile{toc}{\contentsline {subsubsection}{\nonumberline Layout Top}{69}{section*.89}}
\@writefile{lof}{\contentsline {figure}{\numberline {4.6.3}{\ignorespaces Magnettorquer Layout Top}}{69}{figure.caption.90}}
\newlabel{fig:Board-Top}{{4.6.3}{69}{Magnettorquer Layout Top}{figure.caption.90}{}}
\newlabel{fig:Board-Top@cref}{{[figure][3][4,6]4.6.3}{69}}
\@writefile{toc}{\contentsline {subsubsection}{\nonumberline Layout Bottom}{70}{section*.91}}
\@writefile{lof}{\contentsline {figure}{\numberline {4.6.4}{\ignorespaces Magnettorquer Layout Bottom}}{70}{figure.caption.92}}
\newlabel{fig:Board-Bottom}{{4.6.4}{70}{Magnettorquer Layout Bottom}{figure.caption.92}{}}
\newlabel{fig:Board-Bottom@cref}{{[figure][4][4,6]4.6.4}{70}}
\citation{bib:Fertigung}
\@writefile{toc}{\contentsline {subsubsection}{\nonumberline Bohren}{71}{section*.93}}
\@writefile{lof}{\contentsline {figure}{\numberline {4.6.5}{\ignorespaces Bohren Top}}{71}{figure.caption.94}}
\newlabel{fig:Bohren-Top}{{4.6.5}{71}{Bohren Top}{figure.caption.94}{}}
\newlabel{fig:Bohren-Top@cref}{{[figure][5][4,6]4.6.5}{71}}
\@writefile{lof}{\contentsline {figure}{\numberline {4.6.6}{\ignorespaces Bohren Bottom}}{71}{figure.caption.95}}
\newlabel{fig:Bohren-Bottom}{{4.6.6}{71}{Bohren Bottom}{figure.caption.95}{}}
\newlabel{fig:Bohren-Bottom@cref}{{[figure][6][4,6]4.6.6}{71}}
\citation{bib:Fertigung}
\@writefile{toc}{\contentsline {subsubsection}{\nonumberline Belichten}{72}{section*.96}}
\@writefile{lof}{\contentsline {figure}{\numberline {4.6.7}{\ignorespaces Belichten Top}}{72}{figure.caption.97}}
\newlabel{fig:Belichten-Top}{{4.6.7}{72}{Belichten Top}{figure.caption.97}{}}
\newlabel{fig:Belichten-Top@cref}{{[figure][7][4,6]4.6.7}{72}}
\@writefile{lof}{\contentsline {figure}{\numberline {4.6.8}{\ignorespaces Belichten Bottom}}{72}{figure.caption.98}}
\newlabel{fig:Belichten-Bottom}{{4.6.8}{72}{Belichten Bottom}{figure.caption.98}{}}
\newlabel{fig:Belichten-Bottom@cref}{{[figure][8][4,6]4.6.8}{72}}
\citation{bib:Fertigung}
\@writefile{toc}{\contentsline {subsubsection}{\nonumberline Zinnstrippen}{73}{section*.99}}
\@writefile{lof}{\contentsline {figure}{\numberline {4.6.9}{\ignorespaces Zinnstrippen Top}}{73}{figure.caption.100}}
\newlabel{fig:Zinnstrippen-Top}{{4.6.9}{73}{Zinnstrippen Top}{figure.caption.100}{}}
\newlabel{fig:Zinnstrippen-Top@cref}{{[figure][9][4,6]4.6.9}{73}}
\@writefile{lof}{\contentsline {figure}{\numberline {4.6.10}{\ignorespaces Zinnstrippen Bottom}}{73}{figure.caption.101}}
\newlabel{fig:Zinnstrippen-Bottom}{{4.6.10}{73}{Zinnstrippen Bottom}{figure.caption.101}{}}
\newlabel{fig:Zinnstrippen-Bottom@cref}{{[figure][10][4,6]4.6.10}{73}}
\citation{bib:Fertigung}
\@writefile{toc}{\contentsline {subsubsection}{\nonumberline UV-H\IeC {\"a}rten}{74}{section*.102}}
\@writefile{lof}{\contentsline {figure}{\numberline {4.6.11}{\ignorespaces UV-H\IeC {\"a}rten Top}}{74}{figure.caption.103}}
\newlabel{fig:UV-H\IeC {\"a}rten-Top}{{4.6.11}{74}{UV-Härten Top}{figure.caption.103}{}}
\newlabel{fig:UV-H\IeC {\"a}rten-Top@cref}{{[figure][11][4,6]4.6.11}{74}}
\@writefile{lof}{\contentsline {figure}{\numberline {4.6.12}{\ignorespaces UV H\IeC {\"a}rten Bottom}}{74}{figure.caption.104}}
\newlabel{fig:UV-H\IeC {\"a}rten-Bottom}{{4.6.12}{74}{UV Härten Bottom}{figure.caption.104}{}}
\newlabel{fig:UV-H\IeC {\"a}rten-Bottom@cref}{{[figure][12][4,6]4.6.12}{74}}
\@writefile{toc}{\contentsline {subsubsection}{\nonumberline Best\IeC {\"u}ckung und L\IeC {\"o}ten}{75}{section*.105}}
\@writefile{lof}{\contentsline {figure}{\numberline {4.6.13}{\ignorespaces Heizkurve}}{75}{figure.caption.106}}
\newlabel{fig:Heizkurve}{{4.6.13}{75}{Heizkurve}{figure.caption.106}{}}
\newlabel{fig:Heizkurve@cref}{{[figure][13][4,6]4.6.13}{75}}
\@writefile{lof}{\contentsline {figure}{\numberline {4.6.14}{\ignorespaces Platine Top}}{76}{figure.caption.107}}
\newlabel{fig:Platine-Top}{{4.6.14}{76}{Platine Top}{figure.caption.107}{}}
\newlabel{fig:Platine-Top@cref}{{[figure][14][4,6]4.6.14}{76}}
\@writefile{lof}{\contentsline {figure}{\numberline {4.6.15}{\ignorespaces Platine Bottom}}{76}{figure.caption.108}}
\newlabel{fig:Platine-Bottom}{{4.6.15}{76}{Platine Bottom}{figure.caption.108}{}}
\newlabel{fig:Platine-Bottom@cref}{{[figure][15][4,6]4.6.15}{76}}
\citation{bib:LSM9DS0}
\citation{bib:INA226}
\citation{bib:DRV8830}
\gdef \LT@ii {\LT@entry 
    {1}{111.58464pt}\LT@entry 
    {1}{83.13188pt}\LT@entry 
    {1}{68.9055pt}}
\@writefile{toc}{\contentsline {section}{\numberline {4.7}I$^2$C-Adressen}{77}{section.4.7}}
\@writefile{toc}{\contentsline {subsubsection}{\nonumberline Datenbl\IeC {\"a}tter}{77}{section*.109}}
\@writefile{lot}{\contentsline {table}{\numberline {4.7.1}{\ignorespaces I$^2$C-Adressen\relax }}{77}{table.4.7.1}}
\newlabel{tab:I2C_Adressen}{{4.7.1}{77}{Datenblätter}{table.4.7.1}{}}
\newlabel{tab:I2C_Adressen@cref}{{[table][1][4,7]4.7.1}{77}}
\@writefile{toc}{\contentsline {section}{\numberline {4.8}Ablaufdiagramm}{78}{section.4.8}}
\@writefile{lof}{\contentsline {figure}{\numberline {4.8.1}{\ignorespaces Ablaufdiagramm}}{78}{figure.caption.110}}
\newlabel{fig:Ablaufdiagramm}{{4.8.1}{78}{Ablaufdiagramm}{figure.caption.110}{}}
\newlabel{fig:Ablaufdiagramm@cref}{{[figure][1][4,8]4.8.1}{78}}
\newlabel{eq:Strom}{{\relax 4.47}{79}{Ablaufdiagramm}{equation.4.8.47}{}}
\newlabel{eq:Strom@cref}{{[equation][47][4]\relax 4.47}{79}}
\newlabel{eq:Sollwinkel}{{\relax 4.48}{79}{Ablaufdiagramm}{equation.4.8.48}{}}
\newlabel{eq:Sollwinkel@cref}{{[equation][48][4]\relax 4.48}{79}}
\citation{bib:INA226}
\citation{bib:DRV8830}
\@setckpt{03_parts/F_ADCS_Emre}{
\setcounter{page}{81}
\setcounter{equation}{48}
\setcounter{enumi}{6}
\setcounter{enumii}{0}
\setcounter{enumiii}{0}
\setcounter{enumiv}{0}
\setcounter{footnote}{0}
\setcounter{mpfootnote}{0}
\setcounter{part}{0}
\setcounter{chapter}{4}
\setcounter{section}{8}
\setcounter{subsection}{0}
\setcounter{subsubsection}{0}
\setcounter{paragraph}{0}
\setcounter{subparagraph}{0}
\setcounter{figure}{1}
\setcounter{table}{0}
\setcounter{lofdepth}{1}
\setcounter{lotdepth}{1}
\setcounter{nag@c}{51}
\setcounter{parentequation}{0}
\setcounter{Item}{6}
\setcounter{Hfootnote}{0}
\setcounter{bookmark@seq@number}{55}
\setcounter{AM@survey}{0}
\setcounter{ContinuedFloat}{0}
\setcounter{LT@tables}{2}
\setcounter{LT@chunks}{2}
\setcounter{lstnumber}{1}
\setcounter{blindtext}{1}
\setcounter{Blindtext}{5}
\setcounter{blind@countparstart}{0}
\setcounter{blindlist}{0}
\setcounter{blindlistlevel}{0}
\setcounter{blindlist@level}{0}
\setcounter{blind@listcount}{0}
\setcounter{blind@levelcount}{0}
\setcounter{blind@randomcount}{0}
\setcounter{blind@randommax}{0}
\setcounter{blind@pangramcount}{0}
\setcounter{blind@pangrammax}{0}
\setcounter{section@level}{1}
\setcounter{lstlisting}{0}
}
