\relax 
\providecommand\hyper@newdestlabel[2]{}
\citation{bib:USB-I2C-Interface}
\@writefile{toc}{\contentsline {section}{\numberline {4.9}Programmierung der Visualisierung}{81}{section.4.9}}
\@writefile{toc}{\contentsline {subsection}{\numberline {4.9.1}USB-I$^2$C-Interface}{81}{subsection.4.9.1}}
\@writefile{lof}{\contentsline {figure}{\numberline {4.9.1}{\ignorespaces USB-I2C-Interface}}{81}{figure.caption.111}}
\newlabel{fig:USB-I2C-Interface}{{4.9.1}{81}{USB-I2C-Interface}{figure.caption.111}{}}
\newlabel{fig:USB-I2C-Interface@cref}{{[figure][1][4,9]4.9.1}{81}}
\citation{bib:HMC5883L}
\citation{bib:HMC5883L}
\@writefile{toc}{\contentsline {subsection}{\numberline {4.9.2}Digital Compass}{82}{subsection.4.9.2}}
\@writefile{lof}{\contentsline {figure}{\numberline {4.9.2}{\ignorespaces HMC5883L}}{82}{figure.caption.112}}
\newlabel{fig:HMC5883L}{{4.9.2}{82}{HMC5883L}{figure.caption.112}{}}
\newlabel{fig:HMC5883L@cref}{{[figure][2][4,9]4.9.2}{82}}
\@writefile{toc}{\contentsline {subsection}{\numberline {4.9.3}Grafische Oberfl\IeC {\"a}che}{83}{subsection.4.9.3}}
\@writefile{lof}{\contentsline {figure}{\numberline {4.9.3}{\ignorespaces Frontpanel - Magnetometer}}{83}{figure.caption.113}}
\newlabel{fig:Frontpanel - Magnetometer}{{4.9.3}{83}{Frontpanel - Magnetometer}{figure.caption.113}{}}
\newlabel{fig:Frontpanel - Magnetometer@cref}{{[figure][3][4,9]4.9.3}{83}}
\@writefile{lof}{\contentsline {figure}{\numberline {4.9.4}{\ignorespaces Frontpanel - Magnetometer 2}}{84}{figure.caption.114}}
\newlabel{fig:Frontpanel - Magnetometer 2}{{4.9.4}{84}{Frontpanel - Magnetometer 2}{figure.caption.114}{}}
\newlabel{fig:Frontpanel - Magnetometer 2@cref}{{[figure][4][4,9]4.9.4}{84}}
\@writefile{lof}{\contentsline {figure}{\numberline {4.9.5}{\ignorespaces Frontpanel - Gyroscope}}{85}{figure.caption.115}}
\newlabel{fig:Frontpanel - Gyroscope}{{4.9.5}{85}{Frontpanel - Gyroscope}{figure.caption.115}{}}
\newlabel{fig:Frontpanel - Gyroscope@cref}{{[figure][5][4,9]4.9.5}{85}}
\@writefile{lof}{\contentsline {figure}{\numberline {4.9.6}{\ignorespaces Frontpanel - Magnettorquer X}}{86}{figure.caption.116}}
\newlabel{fig:Frontpanel - Magnettorquer X}{{4.9.6}{86}{Frontpanel - Magnettorquer X}{figure.caption.116}{}}
\newlabel{fig:Frontpanel - Magnettorquer X@cref}{{[figure][6][4,9]4.9.6}{86}}
\@writefile{lof}{\contentsline {figure}{\numberline {4.9.7}{\ignorespaces Frontpanel - Magnettorquer Y}}{87}{figure.caption.117}}
\newlabel{fig:Frontpanel - Magnettorquer Y}{{4.9.7}{87}{Frontpanel - Magnettorquer Y}{figure.caption.117}{}}
\newlabel{fig:Frontpanel - Magnettorquer Y@cref}{{[figure][7][4,9]4.9.7}{87}}
\@writefile{lof}{\contentsline {figure}{\numberline {4.9.8}{\ignorespaces Frontpanel - Magnettorquer Z}}{88}{figure.caption.118}}
\newlabel{fig:Frontpanel - Magnettorquer Z}{{4.9.8}{88}{Frontpanel - Magnettorquer Z}{figure.caption.118}{}}
\newlabel{fig:Frontpanel - Magnettorquer Z@cref}{{[figure][8][4,9]4.9.8}{88}}
\@writefile{toc}{\contentsline {subsection}{\numberline {4.9.4}Initialisierung}{89}{subsection.4.9.4}}
\@writefile{lof}{\contentsline {figure}{\numberline {4.9.9}{\ignorespaces Initialize - 1}}{89}{figure.caption.119}}
\newlabel{Initialize - 1}{{4.9.9}{89}{Initialize - 1}{figure.caption.119}{}}
\newlabel{Initialize - 1@cref}{{[figure][9][4,9]4.9.9}{89}}
\@writefile{lof}{\contentsline {figure}{\numberline {4.9.10}{\ignorespaces Initialize - 2}}{90}{figure.caption.120}}
\newlabel{Initialize - 2}{{4.9.10}{90}{Initialize - 2}{figure.caption.120}{}}
\newlabel{Initialize - 2@cref}{{[figure][10][4,9]4.9.10}{90}}
\@writefile{toc}{\contentsline {subsubsection}{\nonumberline State list}{91}{section*.121}}
\@writefile{lof}{\contentsline {figure}{\numberline {4.9.11}{\ignorespaces State list - 1}}{91}{figure.caption.122}}
\newlabel{fig:State list - 1}{{4.9.11}{91}{State list - 1}{figure.caption.122}{}}
\newlabel{fig:State list - 1@cref}{{[figure][11][4,9]4.9.11}{91}}
\@writefile{lof}{\contentsline {figure}{\numberline {4.9.12}{\ignorespaces State list - 2}}{92}{figure.caption.123}}
\newlabel{fig:State list - 2}{{4.9.12}{92}{State list - 2}{figure.caption.123}{}}
\newlabel{fig:State list - 2@cref}{{[figure][12][4,9]4.9.12}{92}}
\@writefile{toc}{\contentsline {subsubsection}{\nonumberline App-Cluster}{92}{section*.124}}
\@writefile{lof}{\contentsline {figure}{\numberline {4.9.13}{\ignorespaces App-Cluster}}{92}{figure.caption.125}}
\newlabel{fig:App-Cluster}{{4.9.13}{92}{App-Cluster}{figure.caption.125}{}}
\newlabel{fig:App-Cluster@cref}{{[figure][13][4,9]4.9.13}{92}}
\@writefile{toc}{\contentsline {subsection}{\numberline {4.9.5}Poll-UI}{93}{subsection.4.9.5}}
\newlabel{subsec:Poll-UI}{{4.9.5}{93}{Poll-UI}{subsection.4.9.5}{}}
\newlabel{subsec:Poll-UI@cref}{{[subsection][5][4,9]4.9.5}{93}}
\@writefile{lof}{\contentsline {figure}{\numberline {4.9.14}{\ignorespaces Poll-UI}}{93}{figure.caption.126}}
\newlabel{fig:Poll-UI}{{4.9.14}{93}{Poll-UI}{figure.caption.126}{}}
\newlabel{fig:Poll-UI@cref}{{[figure][14][4,9]4.9.14}{93}}
\@writefile{lof}{\contentsline {figure}{\numberline {4.9.15}{\ignorespaces Poll-UI - COM-Port}}{95}{figure.caption.127}}
\newlabel{fig:Poll-UI - COM-Port}{{4.9.15}{95}{Poll-UI - COM-Port}{figure.caption.127}{}}
\newlabel{fig:Poll-UI - COM-Port@cref}{{[figure][15][4,9]4.9.15}{95}}
\@writefile{lof}{\contentsline {figure}{\numberline {4.9.16}{\ignorespaces Poll-UI - Start}}{96}{figure.caption.128}}
\newlabel{fig:Poll-UI - Start}{{4.9.16}{96}{Poll-UI - Start}{figure.caption.128}{}}
\newlabel{fig:Poll-UI - Start@cref}{{[figure][16][4,9]4.9.16}{96}}
\@writefile{lof}{\contentsline {figure}{\numberline {4.9.17}{\ignorespaces Poll-UI - Stopp}}{97}{figure.caption.129}}
\newlabel{fig:Poll-UI - Stopp}{{4.9.17}{97}{Poll-UI - Stopp}{figure.caption.129}{}}
\newlabel{fig:Poll-UI - Stopp@cref}{{[figure][17][4,9]4.9.17}{97}}
\@writefile{lof}{\contentsline {figure}{\numberline {4.9.18}{\ignorespaces Poll-UI - Aufl\IeC {\"o}sung}}{98}{figure.caption.130}}
\newlabel{fig:Poll-UI - Aufl\IeC {\"o}sung}{{4.9.18}{98}{Poll-UI - Auflösung}{figure.caption.130}{}}
\newlabel{fig:Poll-UI - Aufl\IeC {\"o}sung@cref}{{[figure][18][4,9]4.9.18}{98}}
\citation{bib:Einfuehrung_in_LabVIEW}
\@writefile{toc}{\contentsline {subsection}{\numberline {4.9.6}Configure-COM}{99}{subsection.4.9.6}}
\@writefile{lof}{\contentsline {figure}{\numberline {4.9.19}{\ignorespaces Configure - COM}}{99}{figure.caption.131}}
\newlabel{fig:Configure - COM}{{4.9.19}{99}{Configure - COM}{figure.caption.131}{}}
\newlabel{fig:Configure - COM@cref}{{[figure][19][4,9]4.9.19}{99}}
\@writefile{toc}{\contentsline {subsection}{\numberline {4.9.7}Hauptprogramm}{100}{subsection.4.9.7}}
\@writefile{toc}{\contentsline {subsubsection}{\nonumberline 4.9.7.1 Magnetometer Continuous-Mode}{100}{section*.132}}
\newlabel{subsubsec:Magnetometer Continuous-Mode}{{4.9.7}{100}{4.9.7.1 Magnetometer Continuous-Mode}{section*.132}{}}
\newlabel{subsubsec:Magnetometer Continuous-Mode@cref}{{[subsection][7][4,9]4.9.7}{100}}
\@writefile{lof}{\contentsline {figure}{\numberline {4.9.20}{\ignorespaces Mag-Cont-Mode}}{100}{figure.caption.133}}
\newlabel{fig:Mag-Cont-Mode}{{4.9.20}{100}{Mag-Cont-Mode}{figure.caption.133}{}}
\newlabel{fig:Mag-Cont-Mode@cref}{{[figure][20][4,9]4.9.20}{100}}
\@writefile{toc}{\contentsline {subsubsection}{\nonumberline 4.9.7.2 Read Magnetometer}{101}{section*.134}}
\newlabel{subsubsec:Read Magnetometer}{{4.9.7}{101}{4.9.7.2 Read Magnetometer}{section*.134}{}}
\newlabel{subsubsec:Read Magnetometer@cref}{{[subsection][7][4,9]4.9.7}{101}}
\@writefile{lof}{\contentsline {figure}{\numberline {4.9.21}{\ignorespaces Read Magnetometer}}{101}{figure.caption.135}}
\newlabel{fig:Read Magnetometer}{{4.9.21}{101}{Read Magnetometer}{figure.caption.135}{}}
\newlabel{fig:Read Magnetometer@cref}{{[figure][21][4,9]4.9.21}{101}}
\@writefile{toc}{\contentsline {subsubsection}{\nonumberline 4.9.7.3 Update Magnetometer Values}{102}{section*.136}}
\@writefile{lof}{\contentsline {figure}{\numberline {4.9.22}{\ignorespaces Update-Mag-Values}}{102}{figure.caption.137}}
\newlabel{fig:Update-Mag-Values}{{4.9.22}{102}{Update-Mag-Values}{figure.caption.137}{}}
\newlabel{fig:Update-Mag-Values@cref}{{[figure][22][4,9]4.9.22}{102}}
\@writefile{toc}{\contentsline {subsubsection}{\nonumberline Array}{102}{section*.138}}
\@writefile{lof}{\contentsline {figure}{\numberline {4.9.23}{\ignorespaces Array}}{102}{figure.caption.139}}
\newlabel{fig:Array}{{4.9.23}{102}{Array}{figure.caption.139}{}}
\newlabel{fig:Array@cref}{{[figure][23][4,9]4.9.23}{102}}
\@writefile{toc}{\contentsline {subsubsection}{\nonumberline 4.9.7.4 Magnetometer Resolution Factor}{103}{section*.140}}
\newlabel{subsubsec:Magnetometer Resolution Factor}{{4.9.7}{103}{4.9.7.4 Magnetometer Resolution Factor}{section*.140}{}}
\newlabel{subsubsec:Magnetometer Resolution Factor@cref}{{[subsection][7][4,9]4.9.7}{103}}
\@writefile{lof}{\contentsline {figure}{\numberline {4.9.24}{\ignorespaces Mag-Res-Factor}}{103}{figure.caption.141}}
\newlabel{fig:Mag-Res-Factor}{{4.9.24}{103}{Mag-Res-Factor}{figure.caption.141}{}}
\newlabel{fig:Mag-Res-Factor@cref}{{[figure][24][4,9]4.9.24}{103}}
\@writefile{toc}{\contentsline {subsubsection}{\nonumberline 4.9.7.5 Magnetometer 2 Control Register}{103}{section*.142}}
\@writefile{lof}{\contentsline {figure}{\numberline {4.9.25}{\ignorespaces Mag2-CTRL-Reg}}{103}{figure.caption.143}}
\newlabel{fig:Mag2-CTRL-Reg}{{4.9.25}{103}{Mag2-CTRL-Reg}{figure.caption.143}{}}
\newlabel{fig:Mag2-CTRL-Reg@cref}{{[figure][25][4,9]4.9.25}{103}}
\@writefile{toc}{\contentsline {subsubsection}{\nonumberline 4.9.7.6 Read Magnetometer 2}{104}{section*.144}}
\newlabel{subsubsec:Read Magnetometer 2}{{4.9.7}{104}{4.9.7.6 Read Magnetometer 2}{section*.144}{}}
\newlabel{subsubsec:Read Magnetometer 2@cref}{{[subsection][7][4,9]4.9.7}{104}}
\@writefile{lof}{\contentsline {figure}{\numberline {4.9.26}{\ignorespaces Read Magnetometer 2}}{104}{figure.caption.145}}
\newlabel{fig:Read Magnetometer 2}{{4.9.26}{104}{Read Magnetometer 2}{figure.caption.145}{}}
\newlabel{fig:Read Magnetometer 2@cref}{{[figure][26][4,9]4.9.26}{104}}
\@writefile{toc}{\contentsline {subsubsection}{\nonumberline 4.9.7.7 Update Magnetometer 2 Values}{105}{section*.146}}
\@writefile{lof}{\contentsline {figure}{\numberline {4.9.27}{\ignorespaces Update-Mag2-Values}}{105}{figure.caption.147}}
\newlabel{fig:Update-Mag2-Values}{{4.9.27}{105}{Update-Mag2-Values}{figure.caption.147}{}}
\newlabel{fig:Update-Mag2-Values@cref}{{[figure][27][4,9]4.9.27}{105}}
\@writefile{toc}{\contentsline {subsubsection}{\nonumberline 4.9.7.8 Gyroscope Control Register}{105}{section*.148}}
\@writefile{lof}{\contentsline {figure}{\numberline {4.9.28}{\ignorespaces Gyro-CTRL-Reg}}{105}{figure.caption.149}}
\newlabel{fig:Gyro-CTRL-Reg}{{4.9.28}{105}{Gyro-CTRL-Reg}{figure.caption.149}{}}
\newlabel{fig:Gyro-CTRL-Reg@cref}{{[figure][28][4,9]4.9.28}{105}}
\@writefile{toc}{\contentsline {subsubsection}{\nonumberline 4.9.7.9 Read Gyroscope}{106}{section*.150}}
\newlabel{subsubsec:Read Gyroscope}{{4.9.7}{106}{4.9.7.9 Read Gyroscope}{section*.150}{}}
\newlabel{subsubsec:Read Gyroscope@cref}{{[subsection][7][4,9]4.9.7}{106}}
\@writefile{lof}{\contentsline {figure}{\numberline {4.9.29}{\ignorespaces Read Gyrosope}}{106}{figure.caption.151}}
\newlabel{fig:Read Gyroscope}{{4.9.29}{106}{Read Gyrosope}{figure.caption.151}{}}
\newlabel{fig:Read Gyroscope@cref}{{[figure][29][4,9]4.9.29}{106}}
\@writefile{toc}{\contentsline {subsubsection}{\nonumberline 4.9.7.10 Update Gyroscope Values}{107}{section*.152}}
\@writefile{lof}{\contentsline {figure}{\numberline {4.9.30}{\ignorespaces Update-Gyro-Values}}{107}{figure.caption.153}}
\newlabel{fig:Update-Gyro-Values}{{4.9.30}{107}{Update-Gyro-Values}{figure.caption.153}{}}
\newlabel{fig:Update-Gyro-Values@cref}{{[figure][30][4,9]4.9.30}{107}}
\@writefile{toc}{\contentsline {subsubsection}{\nonumberline 4.9.7.11 INA Configuration Register}{107}{section*.154}}
\@writefile{lof}{\contentsline {figure}{\numberline {4.9.31}{\ignorespaces INA-Conf-Reg}}{107}{figure.caption.155}}
\newlabel{fig:INA-Conf-Reg}{{4.9.31}{107}{INA-Conf-Reg}{figure.caption.155}{}}
\newlabel{fig:INA-Conf-Reg@cref}{{[figure][31][4,9]4.9.31}{107}}
\@writefile{toc}{\contentsline {subsubsection}{\nonumberline 4.9.7.12 Read INA X-Axis}{108}{section*.156}}
\newlabel{subsubsec:Read INA X-Axis}{{4.9.7}{108}{4.9.7.12 Read INA X-Axis}{section*.156}{}}
\newlabel{subsubsec:Read INA X-Axis@cref}{{[subsection][7][4,9]4.9.7}{108}}
\@writefile{lof}{\contentsline {figure}{\numberline {4.9.32}{\ignorespaces Read INA-X}}{108}{figure.caption.157}}
\newlabel{fig:Read INA-X}{{4.9.32}{108}{Read INA-X}{figure.caption.157}{}}
\newlabel{fig:Read INA-X@cref}{{[figure][32][4,9]4.9.32}{108}}
\@writefile{toc}{\contentsline {subsubsection}{\nonumberline 4.9.7.13 Read INA Y-Axis}{109}{section*.158}}
\newlabel{subsubsec:Read INA Y-Axis}{{4.9.7}{109}{4.9.7.13 Read INA Y-Axis}{section*.158}{}}
\newlabel{subsubsec:Read INA Y-Axis@cref}{{[subsection][7][4,9]4.9.7}{109}}
\@writefile{lof}{\contentsline {figure}{\numberline {4.9.33}{\ignorespaces Read INA-Y}}{109}{figure.caption.159}}
\newlabel{fig:Read INA-Y}{{4.9.33}{109}{Read INA-Y}{figure.caption.159}{}}
\newlabel{fig:Read INA-Y@cref}{{[figure][33][4,9]4.9.33}{109}}
\@writefile{toc}{\contentsline {subsubsection}{\nonumberline 4.9.7.14 Read INA Z-Axis}{110}{section*.160}}
\newlabel{subsubsec:Read INA Z-Axis}{{4.9.7}{110}{4.9.7.14 Read INA Z-Axis}{section*.160}{}}
\newlabel{subsubsec:Read INA Z-Axis@cref}{{[subsection][7][4,9]4.9.7}{110}}
\@writefile{lof}{\contentsline {figure}{\numberline {4.9.34}{\ignorespaces Read INA-Z}}{110}{figure.caption.161}}
\newlabel{fig:Read INA-Z}{{4.9.34}{110}{Read INA-Z}{figure.caption.161}{}}
\newlabel{fig:Read INA-Z@cref}{{[figure][34][4,9]4.9.34}{110}}
\@writefile{toc}{\contentsline {subsubsection}{\nonumberline 4.9.7.15 Update INA Values X-Axis}{110}{section*.162}}
\@writefile{lof}{\contentsline {figure}{\numberline {4.9.35}{\ignorespaces Update-INA-Values-X}}{110}{figure.caption.163}}
\newlabel{fig:Update-INA-Values-X}{{4.9.35}{110}{Update-INA-Values-X}{figure.caption.163}{}}
\newlabel{fig:Update-INA-Values-X@cref}{{[figure][35][4,9]4.9.35}{110}}
\@writefile{toc}{\contentsline {subsubsection}{\nonumberline 4.9.7.16 Update INA Values Y-Axis}{111}{section*.164}}
\@writefile{lof}{\contentsline {figure}{\numberline {4.9.36}{\ignorespaces Update-INA-Values-Y}}{111}{figure.caption.165}}
\newlabel{fig:Update-INA-Values-Y}{{4.9.36}{111}{Update-INA-Values-Y}{figure.caption.165}{}}
\newlabel{fig:Update-INA-Values-Y@cref}{{[figure][36][4,9]4.9.36}{111}}
\@writefile{toc}{\contentsline {subsubsection}{\nonumberline 4.9.7.17 Update INA Values Z-Axis}{111}{section*.166}}
\@writefile{lof}{\contentsline {figure}{\numberline {4.9.37}{\ignorespaces Update-INA-Values-Z}}{111}{figure.caption.167}}
\newlabel{fig:Update-INA-Values-Z}{{4.9.37}{111}{Update-INA-Values-Z}{figure.caption.167}{}}
\newlabel{fig:Update-INA-Values-Z@cref}{{[figure][37][4,9]4.9.37}{111}}
\@writefile{toc}{\contentsline {subsubsection}{\nonumberline 4.9.7.18 Write DRV X-Axis}{112}{section*.168}}
\newlabel{subsubsec:Write DRV X-Axis}{{4.9.7}{112}{4.9.7.18 Write DRV X-Axis}{section*.168}{}}
\newlabel{subsubsec:Write DRV X-Axis@cref}{{[subsection][7][4,9]4.9.7}{112}}
\@writefile{lof}{\contentsline {figure}{\numberline {4.9.38}{\ignorespaces Write DRV-X}}{112}{figure.caption.169}}
\newlabel{fig:Write DRV-X}{{4.9.38}{112}{Write DRV-X}{figure.caption.169}{}}
\newlabel{fig:Write DRV-X@cref}{{[figure][38][4,9]4.9.38}{112}}
\@writefile{toc}{\contentsline {subsubsection}{\nonumberline 4.9.7.19 Write DRV Y-Axis}{112}{section*.170}}
\newlabel{subsubsec:Write DRV Y-Axis}{{4.9.7}{112}{4.9.7.19 Write DRV Y-Axis}{section*.170}{}}
\newlabel{subsubsec:Write DRV Y-Axis@cref}{{[subsection][7][4,9]4.9.7}{112}}
\@writefile{lof}{\contentsline {figure}{\numberline {4.9.39}{\ignorespaces Write DRV-Y}}{112}{figure.caption.171}}
\newlabel{fig:Write DRV-Y}{{4.9.39}{112}{Write DRV-Y}{figure.caption.171}{}}
\newlabel{fig:Write DRV-Y@cref}{{[figure][39][4,9]4.9.39}{112}}
\@writefile{toc}{\contentsline {subsubsection}{\nonumberline 4.9.7.20 Write DRV Z-Axis}{113}{section*.172}}
\@writefile{lof}{\contentsline {figure}{\numberline {4.9.40}{\ignorespaces Write DRV-Z}}{113}{figure.caption.173}}
\newlabel{fig:Write DRV-Z}{{4.9.40}{113}{Write DRV-Z}{figure.caption.173}{}}
\newlabel{fig:Write DRV-Z@cref}{{[figure][40][4,9]4.9.40}{113}}
\@writefile{toc}{\contentsline {subsubsection}{\nonumberline 4.9.7.21 Error Handler}{114}{section*.174}}
\newlabel{subsubsec:Error Handler}{{4.9.7}{114}{4.9.7.21 Error Handler}{section*.174}{}}
\newlabel{subsubsec:Error Handler@cref}{{[subsection][7][4,9]4.9.7}{114}}
\@writefile{lof}{\contentsline {figure}{\numberline {4.9.41}{\ignorespaces Error Handler}}{114}{figure.caption.175}}
\newlabel{fig:Error Handler}{{4.9.41}{114}{Error Handler}{figure.caption.175}{}}
\newlabel{fig:Error Handler@cref}{{[figure][41][4,9]4.9.41}{114}}
\@writefile{toc}{\contentsline {subsubsection}{\nonumberline 4.9.7.22 Close-Port}{115}{section*.176}}
\newlabel{subsubsec:Close-Port}{{4.9.7}{115}{4.9.7.22 Close-Port}{section*.176}{}}
\newlabel{subsubsec:Close-Port@cref}{{[subsection][7][4,9]4.9.7}{115}}
\@writefile{lof}{\contentsline {figure}{\numberline {4.9.42}{\ignorespaces Close Port}}{115}{figure.caption.177}}
\newlabel{fig:Close Port}{{4.9.42}{115}{Close Port}{figure.caption.177}{}}
\newlabel{fig:Close Port@cref}{{[figure][42][4,9]4.9.42}{115}}
\@writefile{toc}{\contentsline {subsubsection}{\nonumberline 4.9.7.23 Exit}{115}{section*.178}}
\newlabel{subsubsec:Exit}{{4.9.7}{115}{4.9.7.23 Exit}{section*.178}{}}
\newlabel{subsubsec:Exit@cref}{{[subsection][7][4,9]4.9.7}{115}}
\@writefile{lof}{\contentsline {figure}{\numberline {4.9.43}{\ignorespaces Exit}}{115}{figure.caption.179}}
\newlabel{fig:Exit}{{4.9.43}{115}{Exit}{figure.caption.179}{}}
\newlabel{fig:Exit@cref}{{[figure][43][4,9]4.9.43}{115}}
\@writefile{toc}{\contentsline {subsection}{\numberline {4.9.8}Unterprogramm (SubVI)}{116}{subsection.4.9.8}}
\@writefile{toc}{\contentsline {subsubsection}{\nonumberline 4.9.8.1 Magnetometer Continuous-Mode}{116}{section*.180}}
\@writefile{lof}{\contentsline {figure}{\numberline {4.9.44}{\ignorespaces Mag-Cont-Mode - SubVI - 1}}{117}{figure.caption.181}}
\newlabel{fig:Mag-Cont-Mode - SubVI - 1}{{4.9.44}{117}{Mag-Cont-Mode - SubVI - 1}{figure.caption.181}{}}
\newlabel{fig:Mag-Cont-Mode - SubVI - 1@cref}{{[figure][44][4,9]4.9.44}{117}}
\@writefile{lof}{\contentsline {figure}{\numberline {4.9.45}{\ignorespaces Mag-Cont-Mode - SubVI - 2}}{118}{figure.caption.182}}
\newlabel{fig:Mag-Cont-Mode - SubVI - 2}{{4.9.45}{118}{Mag-Cont-Mode - SubVI - 2}{figure.caption.182}{}}
\newlabel{fig:Mag-Cont-Mode - SubVI - 2@cref}{{[figure][45][4,9]4.9.45}{118}}
\@writefile{toc}{\contentsline {subsubsection}{\nonumberline 4.9.8.2 Read Magnetometer}{119}{section*.183}}
\@writefile{lof}{\contentsline {figure}{\numberline {4.9.46}{\ignorespaces Read Magnetometer - SubVI}}{119}{figure.caption.184}}
\newlabel{fig:Read Magnetometer - SubVI}{{4.9.46}{119}{Read Magnetometer - SubVI}{figure.caption.184}{}}
\newlabel{fig:Read Magnetometer - SubVI@cref}{{[figure][46][4,9]4.9.46}{119}}
\@writefile{toc}{\contentsline {subsubsection}{\nonumberline 4.9.8.3 Scale Magnetometer Data}{121}{section*.185}}
\newlabel{subsubsec:Scale Magnetometer Data}{{4.9.8}{121}{4.9.8.3 Scale Magnetometer Data}{section*.185}{}}
\newlabel{subsubsec:Scale Magnetometer Data@cref}{{[subsection][8][4,9]4.9.8}{121}}
\@writefile{lof}{\contentsline {figure}{\numberline {4.9.47}{\ignorespaces Scale Magnetometer Data}}{121}{figure.caption.186}}
\newlabel{fig:Scale Magnetometer Data}{{4.9.47}{121}{Scale Magnetometer Data}{figure.caption.186}{}}
\newlabel{fig:Scale Magnetometer Data@cref}{{[figure][47][4,9]4.9.47}{121}}
\@writefile{toc}{\contentsline {subsubsection}{\nonumberline 4.9.8.4 Magnetometer Resolution Factor}{122}{section*.187}}
\@writefile{lof}{\contentsline {figure}{\numberline {4.9.48}{\ignorespaces Mag-Res-Factor - SubVI - 1}}{122}{figure.caption.188}}
\newlabel{fig:Mag-Res-Factor - SubVI - 1}{{4.9.48}{122}{Mag-Res-Factor - SubVI - 1}{figure.caption.188}{}}
\newlabel{fig:Mag-Res-Factor - SubVI - 1@cref}{{[figure][48][4,9]4.9.48}{122}}
\@writefile{lof}{\contentsline {figure}{\numberline {4.9.49}{\ignorespaces Mag-Res-Factor - SubVI - 2}}{124}{figure.caption.189}}
\newlabel{fig:Mag-Res-Factor - SubVI - 2}{{4.9.49}{124}{Mag-Res-Factor - SubVI - 2}{figure.caption.189}{}}
\newlabel{fig:Mag-Res-Factor - SubVI - 2@cref}{{[figure][49][4,9]4.9.49}{124}}
\@writefile{toc}{\contentsline {subsubsection}{\nonumberline 4.9.8.5 Magnetometer 2 Control Register}{125}{section*.190}}
\@writefile{lof}{\contentsline {figure}{\numberline {4.9.50}{\ignorespaces Mag2-CTRL-Reg - SubVI - 1}}{125}{figure.caption.191}}
\newlabel{fig:Mag2-CTRL-Reg - SubVI - 1}{{4.9.50}{125}{Mag2-CTRL-Reg - SubVI - 1}{figure.caption.191}{}}
\newlabel{fig:Mag2-CTRL-Reg - SubVI - 1@cref}{{[figure][50][4,9]4.9.50}{125}}
\@writefile{lof}{\contentsline {figure}{\numberline {4.9.51}{\ignorespaces Mag2-CTRL-Reg - SubVI - 2}}{127}{figure.caption.192}}
\newlabel{fig:Mag2-CTRL-Reg - SubVI - 2}{{4.9.51}{127}{Mag2-CTRL-Reg - SubVI - 2}{figure.caption.192}{}}
\newlabel{fig:Mag2-CTRL-Reg - SubVI - 2@cref}{{[figure][51][4,9]4.9.51}{127}}
\@writefile{toc}{\contentsline {subsubsection}{\nonumberline 4.9.8.6 Read Magnetometer 2}{128}{section*.193}}
\@writefile{lof}{\contentsline {figure}{\numberline {4.9.52}{\ignorespaces Read Magnetometer 2 - SubVI}}{128}{figure.caption.194}}
\newlabel{fig:Read Magnetometer 2 - SubVI}{{4.9.52}{128}{Read Magnetometer 2 - SubVI}{figure.caption.194}{}}
\newlabel{fig:Read Magnetometer 2 - SubVI@cref}{{[figure][52][4,9]4.9.52}{128}}
\@writefile{toc}{\contentsline {subsubsection}{\nonumberline 4.9.8.7 Scale Magnetometer 2 Data}{130}{section*.195}}
\newlabel{subsubsec:Scale Magnetometer 2 Data}{{4.9.8}{130}{4.9.8.7 Scale Magnetometer 2 Data}{section*.195}{}}
\newlabel{subsubsec:Scale Magnetometer 2 Data@cref}{{[subsection][8][4,9]4.9.8}{130}}
\@writefile{toc}{\contentsline {subsubsection}{\nonumberline 4.9.8.8 Gyroscope Control Register}{131}{section*.196}}
\@writefile{lof}{\contentsline {figure}{\numberline {4.9.53}{\ignorespaces Gyro-CTRL-Reg - SubVI - 1}}{131}{figure.caption.197}}
\newlabel{fig:Gyro-CTRL-Reg - SubVI - 1}{{4.9.53}{131}{Gyro-CTRL-Reg - SubVI - 1}{figure.caption.197}{}}
\newlabel{fig:Gyro-CTRL-Reg - SubVI - 1@cref}{{[figure][53][4,9]4.9.53}{131}}
\@writefile{lof}{\contentsline {figure}{\numberline {4.9.54}{\ignorespaces Gyro-CTRL-Reg - SubVI - 2}}{133}{figure.caption.198}}
\newlabel{fig:Gyro-CTRL-Reg - SubVI - 2}{{4.9.54}{133}{Gyro-CTRL-Reg - SubVI - 2}{figure.caption.198}{}}
\newlabel{fig:Gyro-CTRL-Reg - SubVI - 2@cref}{{[figure][54][4,9]4.9.54}{133}}
\@writefile{toc}{\contentsline {subsubsection}{\nonumberline 4.9.8.9 Read Gyroscope}{134}{section*.199}}
\@writefile{lof}{\contentsline {figure}{\numberline {4.9.55}{\ignorespaces Read Gyroscope - SubVI}}{134}{figure.caption.200}}
\newlabel{fig:Read Gyroscope - SubVI}{{4.9.55}{134}{Read Gyroscope - SubVI}{figure.caption.200}{}}
\newlabel{fig:Read Gyroscope - SubVI@cref}{{[figure][55][4,9]4.9.55}{134}}
\@writefile{toc}{\contentsline {subsubsection}{\nonumberline 4.9.8.10 Scale Gyroscope Data}{136}{section*.201}}
\@writefile{toc}{\contentsline {subsubsection}{\nonumberline 4.9.8.11 INA Configuration Register}{137}{section*.202}}
\@writefile{lof}{\contentsline {figure}{\numberline {4.9.56}{\ignorespaces INA-Conf-Reg - SubVI - 1}}{137}{figure.caption.203}}
\newlabel{fig:INA-Conf-Reg - SubVI - 1}{{4.9.56}{137}{INA-Conf-Reg - SubVI - 1}{figure.caption.203}{}}
\newlabel{fig:INA-Conf-Reg - SubVI - 1@cref}{{[figure][56][4,9]4.9.56}{137}}
\newlabel{eq:Current_LSB}{{\relax 4.49}{138}{4.9.8.11 INA Configuration Register}{equation.4.9.49}{}}
\newlabel{eq:Current_LSB@cref}{{[equation][49][4]\relax 4.49}{138}}
\newlabel{eq:CAL}{{\relax 4.50}{138}{4.9.8.11 INA Configuration Register}{equation.4.9.50}{}}
\newlabel{eq:CAL@cref}{{[equation][50][4]\relax 4.50}{138}}
\@writefile{lof}{\contentsline {figure}{\numberline {4.9.57}{\ignorespaces INA-Conf-Reg - SubVI - 2}}{139}{figure.caption.204}}
\newlabel{fig:INA-Conf-Reg - SubVI - 2}{{4.9.57}{139}{INA-Conf-Reg - SubVI - 2}{figure.caption.204}{}}
\newlabel{fig:INA-Conf-Reg - SubVI - 2@cref}{{[figure][57][4,9]4.9.57}{139}}
\@writefile{toc}{\contentsline {subsubsection}{\nonumberline 4.9.8.12 Read INA X-Axis}{140}{section*.205}}
\@writefile{lof}{\contentsline {figure}{\numberline {4.9.58}{\ignorespaces Read INA-X - SubVI}}{140}{figure.caption.206}}
\newlabel{fig:Read INA-X - SubVI}{{4.9.58}{140}{Read INA-X - SubVI}{figure.caption.206}{}}
\newlabel{fig:Read INA-X - SubVI@cref}{{[figure][58][4,9]4.9.58}{140}}
\@writefile{toc}{\contentsline {subsubsection}{\nonumberline 4.9.8.13 Read INA Y-Axis}{142}{section*.207}}
\@writefile{lof}{\contentsline {figure}{\numberline {4.9.59}{\ignorespaces Read INA-Y - SubVI}}{142}{figure.caption.208}}
\newlabel{fig:Read INA-Y - SubVI}{{4.9.59}{142}{Read INA-Y - SubVI}{figure.caption.208}{}}
\newlabel{fig:Read INA-Y - SubVI@cref}{{[figure][59][4,9]4.9.59}{142}}
\@writefile{toc}{\contentsline {subsubsection}{\nonumberline 4.9.8.14 Read INA Z-Axis}{144}{section*.209}}
\@writefile{lof}{\contentsline {figure}{\numberline {4.9.60}{\ignorespaces Read INA-Z - SubVI}}{144}{figure.caption.210}}
\newlabel{fig:Read INA-Z - SubVI}{{4.9.60}{144}{Read INA-Z - SubVI}{figure.caption.210}{}}
\newlabel{fig:Read INA-Z - SubVI@cref}{{[figure][60][4,9]4.9.60}{144}}
\@writefile{toc}{\contentsline {subsubsection}{\nonumberline 4.9.8.15 Write DRV X-Axis}{146}{section*.211}}
\newlabel{Write DRV X-Axis}{{4.9.8}{146}{4.9.8.15 Write DRV X-Axis}{section*.211}{}}
\newlabel{Write DRV X-Axis@cref}{{[subsection][8][4,9]4.9.8}{146}}
\@writefile{lof}{\contentsline {figure}{\numberline {4.9.61}{\ignorespaces Write DRV-X - SubVI - 1}}{146}{figure.caption.212}}
\newlabel{fig:Write DRV-X - SubVI - 1}{{4.9.61}{146}{Write DRV-X - SubVI - 1}{figure.caption.212}{}}
\newlabel{fig:Write DRV-X - SubVI - 1@cref}{{[figure][61][4,9]4.9.61}{146}}
\@writefile{lof}{\contentsline {figure}{\numberline {4.9.62}{\ignorespaces Write DRV-X - SubVI - 2}}{147}{figure.caption.213}}
\newlabel{fig:Write DRV-X - SubVI - 2}{{4.9.62}{147}{Write DRV-X - SubVI - 2}{figure.caption.213}{}}
\newlabel{fig:Write DRV-X - SubVI - 2@cref}{{[figure][62][4,9]4.9.62}{147}}
\@writefile{lof}{\contentsline {figure}{\numberline {4.9.63}{\ignorespaces Write DRV-X - SubVI - 3}}{148}{figure.caption.214}}
\newlabel{fig:Write DRV-X - SubVI - 3}{{4.9.63}{148}{Write DRV-X - SubVI - 3}{figure.caption.214}{}}
\newlabel{fig:Write DRV-X - SubVI - 3@cref}{{[figure][63][4,9]4.9.63}{148}}
\@writefile{lof}{\contentsline {figure}{\numberline {4.9.64}{\ignorespaces Write DRV-X - SubVI - 4}}{148}{figure.caption.215}}
\newlabel{fig:Write DRV-X - SubVI - 4}{{4.9.64}{148}{Write DRV-X - SubVI - 4}{figure.caption.215}{}}
\newlabel{fig:Write DRV-X - SubVI - 4@cref}{{[figure][64][4,9]4.9.64}{148}}
\@writefile{lof}{\contentsline {figure}{\numberline {4.9.65}{\ignorespaces Write DRV-X - SubVI - 5}}{149}{figure.caption.216}}
\newlabel{fig:Write DRV-X - SubVI - 5}{{4.9.65}{149}{Write DRV-X - SubVI - 5}{figure.caption.216}{}}
\newlabel{fig:Write DRV-X - SubVI - 5@cref}{{[figure][65][4,9]4.9.65}{149}}
\@writefile{toc}{\contentsline {subsubsection}{\nonumberline 4.9.8.16 Write DRV Y-Axis}{150}{section*.217}}
\newlabel{Write DRV Y-Axis}{{4.9.8}{150}{4.9.8.16 Write DRV Y-Axis}{section*.217}{}}
\newlabel{Write DRV Y-Axis@cref}{{[subsection][8][4,9]4.9.8}{150}}
\@writefile{toc}{\contentsline {subsubsection}{\nonumberline 4.9.8.17 Write DRV Z-Axis}{150}{section*.218}}
\@setckpt{03_parts/F_ADCS_LabView}{
\setcounter{page}{151}
\setcounter{equation}{50}
\setcounter{enumi}{6}
\setcounter{enumii}{0}
\setcounter{enumiii}{0}
\setcounter{enumiv}{0}
\setcounter{footnote}{0}
\setcounter{mpfootnote}{0}
\setcounter{part}{0}
\setcounter{chapter}{4}
\setcounter{section}{9}
\setcounter{subsection}{8}
\setcounter{subsubsection}{0}
\setcounter{paragraph}{0}
\setcounter{subparagraph}{0}
\setcounter{figure}{65}
\setcounter{table}{0}
\setcounter{lofdepth}{1}
\setcounter{lotdepth}{1}
\setcounter{nag@c}{51}
\setcounter{parentequation}{0}
\setcounter{Item}{6}
\setcounter{Hfootnote}{0}
\setcounter{bookmark@seq@number}{64}
\setcounter{AM@survey}{0}
\setcounter{ContinuedFloat}{0}
\setcounter{LT@tables}{2}
\setcounter{LT@chunks}{2}
\setcounter{lstnumber}{1}
\setcounter{blindtext}{1}
\setcounter{Blindtext}{5}
\setcounter{blind@countparstart}{0}
\setcounter{blindlist}{0}
\setcounter{blindlistlevel}{0}
\setcounter{blindlist@level}{0}
\setcounter{blind@listcount}{0}
\setcounter{blind@levelcount}{0}
\setcounter{blind@randomcount}{0}
\setcounter{blind@randommax}{0}
\setcounter{blind@pangramcount}{0}
\setcounter{blind@pangrammax}{0}
\setcounter{section@level}{3}
\setcounter{lstlisting}{0}
}
